test_run_dir/DUT_should_pass/Karatsuba.vcd
$date
2023-11-28T14:01+0000
$end
$version
0.2
$end
$comment

$end
$timescale 1ns  $end
$scope module Karatsuba $end
 $var wire 64 ! io_out $end
 $var wire 32 " T0 $end
 $var wire 32 # T2 $end
 $var wire 64 $ C $end
 $var wire 32 % io_b $end
 $var wire 1 & clock $end
 $var wire 32 ' T1 $end
 $var wire 32 ( io_a $end
 $var wire 1 ) reset $end
$upscope $end
$enddefinitions $end
$dumpvars
b00000000000000000000000000000000 #
0)
0&
b00000000000000000000000000000000 '
b00000000000000000000000000000000 (
b0000000000000000000000000000000000000000000000000000000000000000 $
b0000000000000000000000000000000000000000000000000000000000000000 !
b00000000000000000000000000000000 %
b00000000000000000000000000000000 "
$end
#0
1)
#1
1&
#6
b00000000000000010101101100111000 %
b01011011001101110100100110010000 "
0&
b01011011001110000100100110001110 '
b00000000000000001111111111111110 (
0)
#11
b0000000000000000000000000000000101011011001101010100100110010000 !
1&
b0000000000000000000000000000000101011011001101010100100110010000 $
#16
b00000000000000010101101100111001 %
b01011011001110000100100110001110 "
0&
b01011011001110010100100110001100 '
#21
b0000000000000000000000000000000101011011001101100100100110001110 !
1&
b0000000000000000000000000000000101011011001101100100100110001110 $
#26
b00000000000000010101101100111010 %
b01011011001110010100100110001100 "
0&
b01011011001110100100100110001010 '
#31
b0000000000000000000000000000000101011011001101110100100110001100 !
1&
b0000000000000000000000000000000101011011001101110100100110001100 $
#36
b00000000000000010101101100111011 %
b01011011001110100100100110001010 "
0&
b01011011001110110100100110001000 '
#41
b0000000000000000000000000000000101011011001110000100100110001010 !
1&
b0000000000000000000000000000000101011011001110000100100110001010 $
#46
b00000000000000010101101100111100 %
b01011011001110110100100110001000 "
0&
b01011011001111000100100110000110 '
#51
b0000000000000000000000000000000101011011001110010100100110001000 !
1&
b0000000000000000000000000000000101011011001110010100100110001000 $
#56
b00000000000000010101101100111101 %
b01011011001111000100100110000110 "
0&
b01011011001111010100100110000100 '
#61
b0000000000000000000000000000000101011011001110100100100110000110 !
1&
b0000000000000000000000000000000101011011001110100100100110000110 $
#66
b00000000000000010101101100111110 %
b01011011001111010100100110000100 "
0&
b01011011001111100100100110000010 '
#71
b0000000000000000000000000000000101011011001110110100100110000100 !
1&
b0000000000000000000000000000000101011011001110110100100110000100 $
#76
b00000000000000010101101100111111 %
b01011011001111100100100110000010 "
0&
b01011011001111110100100110000000 '
#81
b0000000000000000000000000000000101011011001111000100100110000010 !
1&
b0000000000000000000000000000000101011011001111000100100110000010 $
#86
b00000000000000010101101101000000 %
b01011011001111110100100110000000 "
0&
b01011011010000000100100101111110 '
#91
b0000000000000000000000000000000101011011001111010100100110000000 !
1&
b0000000000000000000000000000000101011011001111010100100110000000 $
#96
b00000000000000010101101101000001 %
b01011011010000000100100101111110 "
0&
b01011011010000010100100101111100 '
#101
b0000000000000000000000000000000101011011001111100100100101111110 !
1&
b0000000000000000000000000000000101011011001111100100100101111110 $
#106
b00000000000000010101101101000010 %
b01011011010000010100100101111100 "
0&
b01011011010000100100100101111010 '
#111
b0000000000000000000000000000000101011011001111110100100101111100 !
1&
b0000000000000000000000000000000101011011001111110100100101111100 $
#116
b00000000000000010101101101000011 %
b01011011010000100100100101111010 "
0&
b01011011010000110100100101111000 '
#121
b0000000000000000000000000000000101011011010000000100100101111010 !
1&
b0000000000000000000000000000000101011011010000000100100101111010 $
#126
b00000000000000010101101101000100 %
b01011011010000110100100101111000 "
0&
b01011011010001000100100101110110 '
#131
b0000000000000000000000000000000101011011010000010100100101111000 !
1&
b0000000000000000000000000000000101011011010000010100100101111000 $
#136
b00000000000000010101101101000101 %
b01011011010001000100100101110110 "
0&
b01011011010001010100100101110100 '
#141
b0000000000000000000000000000000101011011010000100100100101110110 !
1&
b0000000000000000000000000000000101011011010000100100100101110110 $
#146
b00000000000000010101101101000110 %
b01011011010001010100100101110100 "
0&
b01011011010001100100100101110010 '
#151
b0000000000000000000000000000000101011011010000110100100101110100 !
1&
b0000000000000000000000000000000101011011010000110100100101110100 $
#156
b00000000000000010101101101000111 %
b01011011010001100100100101110010 "
0&
b01011011010001110100100101110000 '
#161
b0000000000000000000000000000000101011011010001000100100101110010 !
1&
b0000000000000000000000000000000101011011010001000100100101110010 $
#166
b00000000000000010101101101001000 %
b01011011010001110100100101110000 "
0&
b01011011010010000100100101101110 '
#171
b0000000000000000000000000000000101011011010001010100100101110000 !
1&
b0000000000000000000000000000000101011011010001010100100101110000 $
#176
b00000000000000010101101101001001 %
b01011011010010000100100101101110 "
0&
b01011011010010010100100101101100 '
#181
b0000000000000000000000000000000101011011010001100100100101101110 !
1&
b0000000000000000000000000000000101011011010001100100100101101110 $
#186
b00000000000000010101101101001010 %
b01011011010010010100100101101100 "
0&
b01011011010010100100100101101010 '
#191
b0000000000000000000000000000000101011011010001110100100101101100 !
1&
b0000000000000000000000000000000101011011010001110100100101101100 $
#196
b00000000000000010101101101001011 %
b01011011010010100100100101101010 "
0&
b01011011010010110100100101101000 '
#201
b0000000000000000000000000000000101011011010010000100100101101010 !
1&
b0000000000000000000000000000000101011011010010000100100101101010 $
#206
b00000000000000010101101101001100 %
b01011011010010110100100101101000 "
0&
b01011011010011000100100101100110 '
#211
b0000000000000000000000000000000101011011010010010100100101101000 !
1&
b0000000000000000000000000000000101011011010010010100100101101000 $
#216
b00000000000000010101101101001101 %
b01011011010011000100100101100110 "
0&
b01011011010011010100100101100100 '
#221
b0000000000000000000000000000000101011011010010100100100101100110 !
1&
b0000000000000000000000000000000101011011010010100100100101100110 $
#226
b00000000000000010101101101001110 %
b01011011010011010100100101100100 "
0&
b01011011010011100100100101100010 '
#231
b0000000000000000000000000000000101011011010010110100100101100100 !
1&
b0000000000000000000000000000000101011011010010110100100101100100 $
#236
b00000000000000010101101101001111 %
b01011011010011100100100101100010 "
0&
b01011011010011110100100101100000 '
#241
b0000000000000000000000000000000101011011010011000100100101100010 !
1&
b0000000000000000000000000000000101011011010011000100100101100010 $
#246
b00000000000000010101101101010000 %
b01011011010011110100100101100000 "
0&
b01011011010100000100100101011110 '
#251
b0000000000000000000000000000000101011011010011010100100101100000 !
1&
b0000000000000000000000000000000101011011010011010100100101100000 $
#256
b00000000000000010101101101010001 %
b01011011010100000100100101011110 "
0&
b01011011010100010100100101011100 '
#261
b0000000000000000000000000000000101011011010011100100100101011110 !
1&
b0000000000000000000000000000000101011011010011100100100101011110 $
#266
b00000000000000010101101101010010 %
b01011011010100010100100101011100 "
0&
b01011011010100100100100101011010 '
#271
b0000000000000000000000000000000101011011010011110100100101011100 !
1&
b0000000000000000000000000000000101011011010011110100100101011100 $
#276
b00000000000000010101101101010011 %
b01011011010100100100100101011010 "
0&
b01011011010100110100100101011000 '
#281
b0000000000000000000000000000000101011011010100000100100101011010 !
1&
b0000000000000000000000000000000101011011010100000100100101011010 $
#286
b00000000000000010101101101010100 %
b01011011010100110100100101011000 "
0&
b01011011010101000100100101010110 '
#291
b0000000000000000000000000000000101011011010100010100100101011000 !
1&
b0000000000000000000000000000000101011011010100010100100101011000 $
#296
b00000000000000010101101101010101 %
b01011011010101000100100101010110 "
0&
b01011011010101010100100101010100 '
#301
b0000000000000000000000000000000101011011010100100100100101010110 !
1&
b0000000000000000000000000000000101011011010100100100100101010110 $
#306
b00000000000000010101101101010110 %
b01011011010101010100100101010100 "
0&
b01011011010101100100100101010010 '
#311
b0000000000000000000000000000000101011011010100110100100101010100 !
1&
b0000000000000000000000000000000101011011010100110100100101010100 $
#316
b00000000000000010101101101010111 %
b01011011010101100100100101010010 "
0&
b01011011010101110100100101010000 '
#321
b0000000000000000000000000000000101011011010101000100100101010010 !
1&
b0000000000000000000000000000000101011011010101000100100101010010 $
#326
b00000000000000010101101101011000 %
b01011011010101110100100101010000 "
0&
b01011011010110000100100101001110 '
#331
b0000000000000000000000000000000101011011010101010100100101010000 !
1&
b0000000000000000000000000000000101011011010101010100100101010000 $
#336
b00000000000000010101101101011001 %
b01011011010110000100100101001110 "
0&
b01011011010110010100100101001100 '
#341
b0000000000000000000000000000000101011011010101100100100101001110 !
1&
b0000000000000000000000000000000101011011010101100100100101001110 $
#346
b00000000000000010101101101011010 %
b01011011010110010100100101001100 "
0&
b01011011010110100100100101001010 '
#351
b0000000000000000000000000000000101011011010101110100100101001100 !
1&
b0000000000000000000000000000000101011011010101110100100101001100 $
#356
b00000000000000010101101101011011 %
b01011011010110100100100101001010 "
0&
b01011011010110110100100101001000 '
#361
b0000000000000000000000000000000101011011010110000100100101001010 !
1&
b0000000000000000000000000000000101011011010110000100100101001010 $
#366
b00000000000000010101101101011100 %
b01011011010110110100100101001000 "
0&
b01011011010111000100100101000110 '
#371
b0000000000000000000000000000000101011011010110010100100101001000 !
1&
b0000000000000000000000000000000101011011010110010100100101001000 $
#376
b00000000000000010101101101011101 %
b01011011010111000100100101000110 "
0&
b01011011010111010100100101000100 '
#381
b0000000000000000000000000000000101011011010110100100100101000110 !
1&
b0000000000000000000000000000000101011011010110100100100101000110 $
#386
b00000000000000010101101101011110 %
b01011011010111010100100101000100 "
0&
b01011011010111100100100101000010 '
#391
b0000000000000000000000000000000101011011010110110100100101000100 !
1&
b0000000000000000000000000000000101011011010110110100100101000100 $
#396
b00000000000000010101101101011111 %
b01011011010111100100100101000010 "
0&
b01011011010111110100100101000000 '
#401
b0000000000000000000000000000000101011011010111000100100101000010 !
1&
b0000000000000000000000000000000101011011010111000100100101000010 $
#406
b00000000000000010101101101100000 %
b01011011010111110100100101000000 "
0&
b01011011011000000100100100111110 '
#411
b0000000000000000000000000000000101011011010111010100100101000000 !
1&
b0000000000000000000000000000000101011011010111010100100101000000 $
#416
b00000000000000010101101101100001 %
b01011011011000000100100100111110 "
0&
b01011011011000010100100100111100 '
#421
b0000000000000000000000000000000101011011010111100100100100111110 !
1&
b0000000000000000000000000000000101011011010111100100100100111110 $
#426
b00000000000000010101101101100010 %
b01011011011000010100100100111100 "
0&
b01011011011000100100100100111010 '
#431
b0000000000000000000000000000000101011011010111110100100100111100 !
1&
b0000000000000000000000000000000101011011010111110100100100111100 $
#436
b00000000000000010101101101100011 %
b01011011011000100100100100111010 "
0&
b01011011011000110100100100111000 '
#441
b0000000000000000000000000000000101011011011000000100100100111010 !
1&
b0000000000000000000000000000000101011011011000000100100100111010 $
#446
b00000000000000010101101101100100 %
b01011011011000110100100100111000 "
0&
b01011011011001000100100100110110 '
#451
b0000000000000000000000000000000101011011011000010100100100111000 !
1&
b0000000000000000000000000000000101011011011000010100100100111000 $
#456
b00000000000000010101101101100101 %
b01011011011001000100100100110110 "
0&
b01011011011001010100100100110100 '
#461
b0000000000000000000000000000000101011011011000100100100100110110 !
1&
b0000000000000000000000000000000101011011011000100100100100110110 $
#466
b00000000000000010101101101100110 %
b01011011011001010100100100110100 "
0&
b01011011011001100100100100110010 '
#471
b0000000000000000000000000000000101011011011000110100100100110100 !
1&
b0000000000000000000000000000000101011011011000110100100100110100 $
#476
b00000000000000010101101101100111 %
b01011011011001100100100100110010 "
0&
b01011011011001110100100100110000 '
#481
b0000000000000000000000000000000101011011011001000100100100110010 !
1&
b0000000000000000000000000000000101011011011001000100100100110010 $
#486
b00000000000000010101101101101000 %
b01011011011001110100100100110000 "
0&
b01011011011010000100100100101110 '
#491
b0000000000000000000000000000000101011011011001010100100100110000 !
1&
b0000000000000000000000000000000101011011011001010100100100110000 $
#496
b00000000000000010101101101101001 %
b01011011011010000100100100101110 "
0&
b01011011011010010100100100101100 '
#501
b0000000000000000000000000000000101011011011001100100100100101110 !
1&
b0000000000000000000000000000000101011011011001100100100100101110 $
#506
b00000000000000010101101101101010 %
b01011011011010010100100100101100 "
0&
b01011011011010100100100100101010 '
#511
b0000000000000000000000000000000101011011011001110100100100101100 !
1&
b0000000000000000000000000000000101011011011001110100100100101100 $
#516
b00000000000000010101101101101011 %
b01011011011010100100100100101010 "
0&
b01011011011010110100100100101000 '
#521
b0000000000000000000000000000000101011011011010000100100100101010 !
1&
b0000000000000000000000000000000101011011011010000100100100101010 $
#526
b00000000000000010101101101101100 %
b01011011011010110100100100101000 "
0&
b01011011011011000100100100100110 '
#531
b0000000000000000000000000000000101011011011010010100100100101000 !
1&
b0000000000000000000000000000000101011011011010010100100100101000 $
#536
b00000000000000010101101101101101 %
b01011011011011000100100100100110 "
0&
b01011011011011010100100100100100 '
#541
b0000000000000000000000000000000101011011011010100100100100100110 !
1&
b0000000000000000000000000000000101011011011010100100100100100110 $
#546
b00000000000000010101101101101110 %
b01011011011011010100100100100100 "
0&
b01011011011011100100100100100010 '
#551
b0000000000000000000000000000000101011011011010110100100100100100 !
1&
b0000000000000000000000000000000101011011011010110100100100100100 $
#556
b00000000000000010101101101101111 %
b01011011011011100100100100100010 "
0&
b01011011011011110100100100100000 '
#561
b0000000000000000000000000000000101011011011011000100100100100010 !
1&
b0000000000000000000000000000000101011011011011000100100100100010 $
#566
b00000000000000010101101101110000 %
b01011011011011110100100100100000 "
0&
b01011011011100000100100100011110 '
#571
b0000000000000000000000000000000101011011011011010100100100100000 !
1&
b0000000000000000000000000000000101011011011011010100100100100000 $
#576
b00000000000000010101101101110001 %
b01011011011100000100100100011110 "
0&
b01011011011100010100100100011100 '
#581
b0000000000000000000000000000000101011011011011100100100100011110 !
1&
b0000000000000000000000000000000101011011011011100100100100011110 $
#586
b00000000000000010101101101110010 %
b01011011011100010100100100011100 "
0&
b01011011011100100100100100011010 '
#591
b0000000000000000000000000000000101011011011011110100100100011100 !
1&
b0000000000000000000000000000000101011011011011110100100100011100 $
#596
b00000000000000010101101101110011 %
b01011011011100100100100100011010 "
0&
b01011011011100110100100100011000 '
#601
b0000000000000000000000000000000101011011011100000100100100011010 !
1&
b0000000000000000000000000000000101011011011100000100100100011010 $
#606
b00000000000000010101101101110100 %
b01011011011100110100100100011000 "
0&
b01011011011101000100100100010110 '
#611
b0000000000000000000000000000000101011011011100010100100100011000 !
1&
b0000000000000000000000000000000101011011011100010100100100011000 $
#616
b00000000000000010101101101110101 %
b01011011011101000100100100010110 "
0&
b01011011011101010100100100010100 '
#621
b0000000000000000000000000000000101011011011100100100100100010110 !
1&
b0000000000000000000000000000000101011011011100100100100100010110 $
#626
b00000000000000010101101101110110 %
b01011011011101010100100100010100 "
0&
b01011011011101100100100100010010 '
#631
b0000000000000000000000000000000101011011011100110100100100010100 !
1&
b0000000000000000000000000000000101011011011100110100100100010100 $
#636
b00000000000000010101101101110111 %
b01011011011101100100100100010010 "
0&
b01011011011101110100100100010000 '
#641
b0000000000000000000000000000000101011011011101000100100100010010 !
1&
b0000000000000000000000000000000101011011011101000100100100010010 $
#646
b00000000000000010101101101111000 %
b01011011011101110100100100010000 "
0&
b01011011011110000100100100001110 '
#651
b0000000000000000000000000000000101011011011101010100100100010000 !
1&
b0000000000000000000000000000000101011011011101010100100100010000 $
#656
b00000000000000010101101101111001 %
b01011011011110000100100100001110 "
0&
b01011011011110010100100100001100 '
#661
b0000000000000000000000000000000101011011011101100100100100001110 !
1&
b0000000000000000000000000000000101011011011101100100100100001110 $
#666
b00000000000000010101101101111010 %
b01011011011110010100100100001100 "
0&
b01011011011110100100100100001010 '
#671
b0000000000000000000000000000000101011011011101110100100100001100 !
1&
b0000000000000000000000000000000101011011011101110100100100001100 $
#676
b00000000000000010101101101111011 %
b01011011011110100100100100001010 "
0&
b01011011011110110100100100001000 '
#681
b0000000000000000000000000000000101011011011110000100100100001010 !
1&
b0000000000000000000000000000000101011011011110000100100100001010 $
#686
b00000000000000010101101101111100 %
b01011011011110110100100100001000 "
0&
b01011011011111000100100100000110 '
#691
b0000000000000000000000000000000101011011011110010100100100001000 !
1&
b0000000000000000000000000000000101011011011110010100100100001000 $
#696
b00000000000000010101101101111101 %
b01011011011111000100100100000110 "
0&
b01011011011111010100100100000100 '
#701
b0000000000000000000000000000000101011011011110100100100100000110 !
1&
b0000000000000000000000000000000101011011011110100100100100000110 $
#706
b00000000000000010101101101111110 %
b01011011011111010100100100000100 "
0&
b01011011011111100100100100000010 '
#711
b0000000000000000000000000000000101011011011110110100100100000100 !
1&
b0000000000000000000000000000000101011011011110110100100100000100 $
#716
b00000000000000010101101101111111 %
b01011011011111100100100100000010 "
0&
b01011011011111110100100100000000 '
#721
b0000000000000000000000000000000101011011011111000100100100000010 !
1&
b0000000000000000000000000000000101011011011111000100100100000010 $
#726
b00000000000000010101101110000000 %
b01011011011111110100100100000000 "
0&
b01011011100000000100100011111110 '
#731
b0000000000000000000000000000000101011011011111010100100100000000 !
1&
b0000000000000000000000000000000101011011011111010100100100000000 $
#736
b00000000000000010101101110000001 %
b01011011100000000100100011111110 "
0&
b01011011100000010100100011111100 '
#741
b0000000000000000000000000000000101011011011111100100100011111110 !
1&
b0000000000000000000000000000000101011011011111100100100011111110 $
#746
b00000000000000010101101110000010 %
b01011011100000010100100011111100 "
0&
b01011011100000100100100011111010 '
#751
b0000000000000000000000000000000101011011011111110100100011111100 !
1&
b0000000000000000000000000000000101011011011111110100100011111100 $
#756
b00000000000000010101101110000011 %
b01011011100000100100100011111010 "
0&
b01011011100000110100100011111000 '
#761
b0000000000000000000000000000000101011011100000000100100011111010 !
1&
b0000000000000000000000000000000101011011100000000100100011111010 $
#766
b00000000000000010101101110000100 %
b01011011100000110100100011111000 "
0&
b01011011100001000100100011110110 '
#771
b0000000000000000000000000000000101011011100000010100100011111000 !
1&
b0000000000000000000000000000000101011011100000010100100011111000 $
#776
b00000000000000010101101110000101 %
b01011011100001000100100011110110 "
0&
b01011011100001010100100011110100 '
#781
b0000000000000000000000000000000101011011100000100100100011110110 !
1&
b0000000000000000000000000000000101011011100000100100100011110110 $
#786
b00000000000000010101101110000110 %
b01011011100001010100100011110100 "
0&
b01011011100001100100100011110010 '
#791
b0000000000000000000000000000000101011011100000110100100011110100 !
1&
b0000000000000000000000000000000101011011100000110100100011110100 $
#796
b00000000000000010101101110000111 %
b01011011100001100100100011110010 "
0&
b01011011100001110100100011110000 '
#801
b0000000000000000000000000000000101011011100001000100100011110010 !
1&
b0000000000000000000000000000000101011011100001000100100011110010 $
#806
b00000000000000010101101110001000 %
b01011011100001110100100011110000 "
0&
b01011011100010000100100011101110 '
#811
b0000000000000000000000000000000101011011100001010100100011110000 !
1&
b0000000000000000000000000000000101011011100001010100100011110000 $
#816
b00000000000000010101101110001001 %
b01011011100010000100100011101110 "
0&
b01011011100010010100100011101100 '
#821
b0000000000000000000000000000000101011011100001100100100011101110 !
1&
b0000000000000000000000000000000101011011100001100100100011101110 $
#826
b00000000000000010101101110001010 %
b01011011100010010100100011101100 "
0&
b01011011100010100100100011101010 '
#831
b0000000000000000000000000000000101011011100001110100100011101100 !
1&
b0000000000000000000000000000000101011011100001110100100011101100 $
#836
b00000000000000010101101110001011 %
b01011011100010100100100011101010 "
0&
b01011011100010110100100011101000 '
#841
b0000000000000000000000000000000101011011100010000100100011101010 !
1&
b0000000000000000000000000000000101011011100010000100100011101010 $
#846
b00000000000000010101101110001100 %
b01011011100010110100100011101000 "
0&
b01011011100011000100100011100110 '
#851
b0000000000000000000000000000000101011011100010010100100011101000 !
1&
b0000000000000000000000000000000101011011100010010100100011101000 $
#856
b00000000000000010101101110001101 %
b01011011100011000100100011100110 "
0&
b01011011100011010100100011100100 '
#861
b0000000000000000000000000000000101011011100010100100100011100110 !
1&
b0000000000000000000000000000000101011011100010100100100011100110 $
#866
b00000000000000010101101110001110 %
b01011011100011010100100011100100 "
0&
b01011011100011100100100011100010 '
#871
b0000000000000000000000000000000101011011100010110100100011100100 !
1&
b0000000000000000000000000000000101011011100010110100100011100100 $
#876
b00000000000000010101101110001111 %
b01011011100011100100100011100010 "
0&
b01011011100011110100100011100000 '
#881
b0000000000000000000000000000000101011011100011000100100011100010 !
1&
b0000000000000000000000000000000101011011100011000100100011100010 $
#886
b00000000000000010101101110010000 %
b01011011100011110100100011100000 "
0&
b01011011100100000100100011011110 '
#891
b0000000000000000000000000000000101011011100011010100100011100000 !
1&
b0000000000000000000000000000000101011011100011010100100011100000 $
#896
b00000000000000010101101110010001 %
b01011011100100000100100011011110 "
0&
b01011011100100010100100011011100 '
#901
b0000000000000000000000000000000101011011100011100100100011011110 !
1&
b0000000000000000000000000000000101011011100011100100100011011110 $
#906
b00000000000000010101101110010010 %
b01011011100100010100100011011100 "
0&
b01011011100100100100100011011010 '
#911
b0000000000000000000000000000000101011011100011110100100011011100 !
1&
b0000000000000000000000000000000101011011100011110100100011011100 $
#916
b00000000000000010101101110010011 %
b01011011100100100100100011011010 "
0&
b01011011100100110100100011011000 '
#921
b0000000000000000000000000000000101011011100100000100100011011010 !
1&
b0000000000000000000000000000000101011011100100000100100011011010 $
#926
b00000000000000010101101110010100 %
b01011011100100110100100011011000 "
0&
b01011011100101000100100011010110 '
#931
b0000000000000000000000000000000101011011100100010100100011011000 !
1&
b0000000000000000000000000000000101011011100100010100100011011000 $
#936
b00000000000000010101101110010101 %
b01011011100101000100100011010110 "
0&
b01011011100101010100100011010100 '
#941
b0000000000000000000000000000000101011011100100100100100011010110 !
1&
b0000000000000000000000000000000101011011100100100100100011010110 $
#946
b00000000000000010101101110010110 %
b01011011100101010100100011010100 "
0&
b01011011100101100100100011010010 '
#951
b0000000000000000000000000000000101011011100100110100100011010100 !
1&
b0000000000000000000000000000000101011011100100110100100011010100 $
#956
b00000000000000010101101110010111 %
b01011011100101100100100011010010 "
0&
b01011011100101110100100011010000 '
#961
b0000000000000000000000000000000101011011100101000100100011010010 !
1&
b0000000000000000000000000000000101011011100101000100100011010010 $
#966
b00000000000000010101101110011000 %
b01011011100101110100100011010000 "
0&
b01011011100110000100100011001110 '
#971
b0000000000000000000000000000000101011011100101010100100011010000 !
1&
b0000000000000000000000000000000101011011100101010100100011010000 $
#976
b00000000000000010101101110011001 %
b01011011100110000100100011001110 "
0&
b01011011100110010100100011001100 '
#981
b0000000000000000000000000000000101011011100101100100100011001110 !
1&
b0000000000000000000000000000000101011011100101100100100011001110 $
#986
b00000000000000010101101110011010 %
b01011011100110010100100011001100 "
0&
b01011011100110100100100011001010 '
#991
b0000000000000000000000000000000101011011100101110100100011001100 !
1&
b0000000000000000000000000000000101011011100101110100100011001100 $
#996
b00000000000000010101101110011011 %
b01011011100110100100100011001010 "
0&
b01011011100110110100100011001000 '
#1001
b0000000000000000000000000000000101011011100110000100100011001010 !
1&
b0000000000000000000000000000000101011011100110000100100011001010 $
#1006
b00000000000000010101101110011100 %
b01011011100110110100100011001000 "
0&
b01011011100111000100100011000110 '
#1011
b0000000000000000000000000000000101011011100110010100100011001000 !
1&
b0000000000000000000000000000000101011011100110010100100011001000 $
#1016
b00000000000000010101101100111000 %
b01011011001101111010010011001000 "
0&
b01011011001110001010010011000111 '
b00000000000000001111111111111111 (
#1021
b0000000000000000000000000000000101011011001101101010010011001000 !
1&
b0000000000000000000000000000000101011011001101101010010011001000 $
#1026
b00000000000000010101101100111001 %
b01011011001110001010010011000111 "
0&
b01011011001110011010010011000110 '
#1031
b0000000000000000000000000000000101011011001101111010010011000111 !
1&
b0000000000000000000000000000000101011011001101111010010011000111 $
#1036
b00000000000000010101101100111010 %
b01011011001110011010010011000110 "
0&
b01011011001110101010010011000101 '
#1041
b0000000000000000000000000000000101011011001110001010010011000110 !
1&
b0000000000000000000000000000000101011011001110001010010011000110 $
#1046
b00000000000000010101101100111011 %
b01011011001110101010010011000101 "
0&
b01011011001110111010010011000100 '
#1051
b0000000000000000000000000000000101011011001110011010010011000101 !
1&
b0000000000000000000000000000000101011011001110011010010011000101 $
#1056
b00000000000000010101101100111100 %
b01011011001110111010010011000100 "
0&
b01011011001111001010010011000011 '
#1061
b0000000000000000000000000000000101011011001110101010010011000100 !
1&
b0000000000000000000000000000000101011011001110101010010011000100 $
#1066
b00000000000000010101101100111101 %
b01011011001111001010010011000011 "
0&
b01011011001111011010010011000010 '
#1071
b0000000000000000000000000000000101011011001110111010010011000011 !
1&
b0000000000000000000000000000000101011011001110111010010011000011 $
#1076
b00000000000000010101101100111110 %
b01011011001111011010010011000010 "
0&
b01011011001111101010010011000001 '
#1081
b0000000000000000000000000000000101011011001111001010010011000010 !
1&
b0000000000000000000000000000000101011011001111001010010011000010 $
#1086
b00000000000000010101101100111111 %
b01011011001111101010010011000001 "
0&
b01011011001111111010010011000000 '
#1091
b0000000000000000000000000000000101011011001111011010010011000001 !
1&
b0000000000000000000000000000000101011011001111011010010011000001 $
#1096
b00000000000000010101101101000000 %
b01011011001111111010010011000000 "
0&
b01011011010000001010010010111111 '
#1101
b0000000000000000000000000000000101011011001111101010010011000000 !
1&
b0000000000000000000000000000000101011011001111101010010011000000 $
#1106
b00000000000000010101101101000001 %
b01011011010000001010010010111111 "
0&
b01011011010000011010010010111110 '
#1111
b0000000000000000000000000000000101011011001111111010010010111111 !
1&
b0000000000000000000000000000000101011011001111111010010010111111 $
#1116
b00000000000000010101101101000010 %
b01011011010000011010010010111110 "
0&
b01011011010000101010010010111101 '
#1121
b0000000000000000000000000000000101011011010000001010010010111110 !
1&
b0000000000000000000000000000000101011011010000001010010010111110 $
#1126
b00000000000000010101101101000011 %
b01011011010000101010010010111101 "
0&
b01011011010000111010010010111100 '
#1131
b0000000000000000000000000000000101011011010000011010010010111101 !
1&
b0000000000000000000000000000000101011011010000011010010010111101 $
#1136
b00000000000000010101101101000100 %
b01011011010000111010010010111100 "
0&
b01011011010001001010010010111011 '
#1141
b0000000000000000000000000000000101011011010000101010010010111100 !
1&
b0000000000000000000000000000000101011011010000101010010010111100 $
#1146
b00000000000000010101101101000101 %
b01011011010001001010010010111011 "
0&
b01011011010001011010010010111010 '
#1151
b0000000000000000000000000000000101011011010000111010010010111011 !
1&
b0000000000000000000000000000000101011011010000111010010010111011 $
#1156
b00000000000000010101101101000110 %
b01011011010001011010010010111010 "
0&
b01011011010001101010010010111001 '
#1161
b0000000000000000000000000000000101011011010001001010010010111010 !
1&
b0000000000000000000000000000000101011011010001001010010010111010 $
#1166
b00000000000000010101101101000111 %
b01011011010001101010010010111001 "
0&
b01011011010001111010010010111000 '
#1171
b0000000000000000000000000000000101011011010001011010010010111001 !
1&
b0000000000000000000000000000000101011011010001011010010010111001 $
#1176
b00000000000000010101101101001000 %
b01011011010001111010010010111000 "
0&
b01011011010010001010010010110111 '
#1181
b0000000000000000000000000000000101011011010001101010010010111000 !
1&
b0000000000000000000000000000000101011011010001101010010010111000 $
#1186
b00000000000000010101101101001001 %
b01011011010010001010010010110111 "
0&
b01011011010010011010010010110110 '
#1191
b0000000000000000000000000000000101011011010001111010010010110111 !
1&
b0000000000000000000000000000000101011011010001111010010010110111 $
#1196
b00000000000000010101101101001010 %
b01011011010010011010010010110110 "
0&
b01011011010010101010010010110101 '
#1201
b0000000000000000000000000000000101011011010010001010010010110110 !
1&
b0000000000000000000000000000000101011011010010001010010010110110 $
#1206
b00000000000000010101101101001011 %
b01011011010010101010010010110101 "
0&
b01011011010010111010010010110100 '
#1211
b0000000000000000000000000000000101011011010010011010010010110101 !
1&
b0000000000000000000000000000000101011011010010011010010010110101 $
#1216
b00000000000000010101101101001100 %
b01011011010010111010010010110100 "
0&
b01011011010011001010010010110011 '
#1221
b0000000000000000000000000000000101011011010010101010010010110100 !
1&
b0000000000000000000000000000000101011011010010101010010010110100 $
#1226
b00000000000000010101101101001101 %
b01011011010011001010010010110011 "
0&
b01011011010011011010010010110010 '
#1231
b0000000000000000000000000000000101011011010010111010010010110011 !
1&
b0000000000000000000000000000000101011011010010111010010010110011 $
#1236
b00000000000000010101101101001110 %
b01011011010011011010010010110010 "
0&
b01011011010011101010010010110001 '
#1241
b0000000000000000000000000000000101011011010011001010010010110010 !
1&
b0000000000000000000000000000000101011011010011001010010010110010 $
#1246
b00000000000000010101101101001111 %
b01011011010011101010010010110001 "
0&
b01011011010011111010010010110000 '
#1251
b0000000000000000000000000000000101011011010011011010010010110001 !
1&
b0000000000000000000000000000000101011011010011011010010010110001 $
#1256
b00000000000000010101101101010000 %
b01011011010011111010010010110000 "
0&
b01011011010100001010010010101111 '
#1261
b0000000000000000000000000000000101011011010011101010010010110000 !
1&
b0000000000000000000000000000000101011011010011101010010010110000 $
#1266
b00000000000000010101101101010001 %
b01011011010100001010010010101111 "
0&
b01011011010100011010010010101110 '
#1271
b0000000000000000000000000000000101011011010011111010010010101111 !
1&
b0000000000000000000000000000000101011011010011111010010010101111 $
#1276
b00000000000000010101101101010010 %
b01011011010100011010010010101110 "
0&
b01011011010100101010010010101101 '
#1281
b0000000000000000000000000000000101011011010100001010010010101110 !
1&
b0000000000000000000000000000000101011011010100001010010010101110 $
#1286
b00000000000000010101101101010011 %
b01011011010100101010010010101101 "
0&
b01011011010100111010010010101100 '
#1291
b0000000000000000000000000000000101011011010100011010010010101101 !
1&
b0000000000000000000000000000000101011011010100011010010010101101 $
#1296
b00000000000000010101101101010100 %
b01011011010100111010010010101100 "
0&
b01011011010101001010010010101011 '
#1301
b0000000000000000000000000000000101011011010100101010010010101100 !
1&
b0000000000000000000000000000000101011011010100101010010010101100 $
#1306
b00000000000000010101101101010101 %
b01011011010101001010010010101011 "
0&
b01011011010101011010010010101010 '
#1311
b0000000000000000000000000000000101011011010100111010010010101011 !
1&
b0000000000000000000000000000000101011011010100111010010010101011 $
#1316
b00000000000000010101101101010110 %
b01011011010101011010010010101010 "
0&
b01011011010101101010010010101001 '
#1321
b0000000000000000000000000000000101011011010101001010010010101010 !
1&
b0000000000000000000000000000000101011011010101001010010010101010 $
#1326
b00000000000000010101101101010111 %
b01011011010101101010010010101001 "
0&
b01011011010101111010010010101000 '
#1331
b0000000000000000000000000000000101011011010101011010010010101001 !
1&
b0000000000000000000000000000000101011011010101011010010010101001 $
