test_run_dir/Karatsuba_should_pass/Karatsuba4x4.vcd
$date
2023-11-30T09:08+0000
$end
$version
0.2
$end
$comment

$end
$timescale 1ns  $end
$scope module Karatsuba4x4 $end
 $var wire 8 ! ad $end
 $var wire 8 # io_out $end
 $var wire 8 $ T0 $end
 $var wire 8 % ac $end
 $var wire 1 , Ka4_2 $end
 $var wire 4 0 io_b $end
 $var wire 8 3 bd $end
 $var wire 1 4 Ka4_4 $end
 $var wire 1 5 clock $end
 $var wire 8 9 T1 $end
 $var wire 7 ; psum $end
 $var wire 1 < Ka4_1 $end
 $var wire 4 B io_a $end
 $var wire 8 D bc $end
 $var wire 1 F reset $end
 $var wire 1 H Ka4_3 $end
  $scope module Ka4_1 $end
   $var wire 2 ) io_out_hi $end
   $var wire 2 * io_b $end
   $var wire 1 + temp $end
   $var wire 4 6 io_out $end
   $var wire 2 8 io_a $end
   $var wire 2 > io_out_lo $end
  $upscope $end
  $scope module Ka4_2 $end
   $var wire 2 . io_out_hi $end
   $var wire 4 / io_out $end
   $var wire 2 1 io_b $end
   $var wire 1 2 temp $end
   $var wire 2 C io_a $end
   $var wire 2 G io_out_lo $end
  $upscope $end
  $scope module Ka4_3 $end
   $var wire 2 " io_a $end
   $var wire 4 & io_out $end
   $var wire 2 ( io_out_lo $end
   $var wire 2 7 io_b $end
   $var wire 2 : io_out_hi $end
   $var wire 1 = temp $end
  $upscope $end
  $scope module Ka4_4 $end
   $var wire 2 ' io_a $end
   $var wire 2 - io_out_lo $end
   $var wire 2 ? io_b $end
   $var wire 2 @ io_out_hi $end
   $var wire 4 A io_out $end
   $var wire 1 E temp $end
  $upscope $end
$upscope $end
$enddefinitions $end
$dumpvars
b00 .
b00 '
0<
b00 (
0=
b00 >
b00 )
b00 ?
b00 *
b00 "
b00 @
b00000000 %
b00 :
02
b00000000 D
b0000000 ;
04
b0000 6
05
b00000000 !
b0000 /
b00 7
b0000 0
b00 8
b00000000 #
0E
b00000000 9
b00000000 $
b00 1
0F
b00 G
b00000000 3
0H
b0000 A
0+
b0000 B
0,
b00 -
b0000 &
b00 C
$end
#0
1F
#1
15
#6
b00000010 3
b0010 B
b0001 0
b01 ?
0F
b10 "
b10 8
05
b00000010 #
b01 *
b00000010 9
b0010 6
b10 >
#11
15
#16
b00000000 3
b1000 B
b00 -
b00000100 %
b10 C
b01 .
05
b10 '
b0000 6
b10 7
b0100 /
b00 >
b00000000 !
b1000 0
b00 ?
b00 "
b10 1
b00 8
b01000000 #
b00 *
b00000000 9
b01000000 $
b0000 A
b0000000 ;
#21
15
#26
b0111 B
b00000000 %
b01 C
b00 .
b0000 &
05
b00000000 D
b01 '
b00 (
b00 7
b0000 /
b0000 0
b11 "
b00 1
b11 8
b00 G
b00000000 #
b00000000 $
b00 :
b0000000 ;
#31
15
#36
b00000011 3
b1111 B
b11 -
b00000110 %
b11 C
b01 .
b0110 &
05
b00000110 D
b11 '
b0011 6
b10 (
b10 7
b0110 /
b11 >
b00000011 !
b1001 0
b01 ?
b10 1
b10 G
b10000111 #
b01 *
b00000011 9
b01100000 $
b01 :
b0011 A
b0100100 ;
#41
15
#46
b00000000 3
b0000 B
b00 -
b00000000 %
b00 C
b00 .
b0000 &
05
b00000000 D
b00 '
b0000 6
b00 (
b0000 /
b00 >
b00000000 !
b1011 0
b11 ?
b00 "
b00 8
b00 G
b00000000 #
b11 *
b00000000 9
b00000000 $
b00 :
b0000 A
b0000000 ;
#51
15
#56
b00000000 3
b0011 B
b0110 &
05
b00000110 D
b0000 6
b10 (
b00 >
b00 )
b1000 0
b00 ?
b11 "
b11 8
b00011000 #
b00 *
b00000000 9
0+
b01 :
b0011000 ;
#61
15
#66
b00001001 3
b1011 0
b11 ?
05
b00100001 #
b11 *
b00001001 9
b1001 6
1+
b01 >
b10 )
#71
15
#76
b00000000 3
b0001 B
b0010 &
05
b00000010 D
b0000 6
b00 >
b00 )
b1000 0
b00 ?
b01 "
b01 8
b00001000 #
b00 *
b00000000 9
0+
b00 :
b0001000 ;
#81
15
#86
b00000011 3
b0011 &
05
b00000011 D
b0011 6
b11 (
b11 7
b11 >
b1111 0
b11 ?
b11 1
b00001111 #
b11 *
b00000011 9
b0001100 ;
#91
15
#96
b00000000 3
b0000 B
b0000 &
05
b00000000 D
b0000 6
b00 (
b00 7
b00 >
b0001 0
b01 ?
b00 "
b00 1
b00 8
b00000000 #
b01 *
b00000000 9
b0000000 ;
#101
15
#106
b00000011 3
b0101 B
b11 -
b01 C
05
b01 '
b0011 6
b11 >
b00000011 !
b0011 0
b11 ?
b01 "
b01 8
b00001111 #
b11 *
b00000011 9
b0011 A
b0001100 ;
#111
15
#116
b00000000 3
05
b0000 6
b11 7
b0110 /
b1100 0
b11 1
b10 G
b00 *
0+
b0000 A
b1011 B
b00 -
b00000110 %
b10 C
b01 .
b1001 &
b00001001 D
b10 '
1=
b01 (
b00 >
b00 )
b00000000 !
b00 ?
b11 "
b00 @
b11 8
b10000100 #
b00000000 9
b01100000 $
b10 :
b0100100 ;
#121
15
#126
b1000 B
b10 -
b00000100 %
b0000 &
05
b00000000 D
0=
b00 (
b10 7
b0100 /
b00000110 !
b1011 0
b11 ?
b00 "
b10 1
b01 @
b00 8
b00 G
b01011000 #
b11 *
b01000000 $
b00 :
b0110 A
b0011000 ;
#131
15
#136
b00000000 3
b1001 B
b00 -
b00000000 %
b00 .
b0000 &
05
b00000000 D
b0000 6
b00 (
b00 7
b0000 /
b00 >
b00000000 !
b0000 0
b00 ?
b01 "
b00 1
b00 @
b01 8
b00000000 #
b00 *
b00000000 9
b00000000 $
b0000 A
b0000000 ;
#141
15
#146
b1010 B
b00000100 %
b01 .
b0100 &
05
b00000100 D
b10 7
b0100 /
b1000 0
b10 "
b10 1
b10 8
b01010000 #
b01000000 $
b01 :
b0010000 ;
#151
15
#156
b00000010 3
b0010 B
b00000000 %
b00 C
b00 .
b0000 &
05
b00000000 D
b00 '
b0010 6
b00 7
b0000 /
b10 >
b0001 0
b01 ?
b00 1
b00000010 #
b01 *
b00000010 9
b00000000 $
b00 :
b0000000 ;
#161
15
#166
b00000000 3
05
b0000 6
b11 7
b1001 /
b1111 0
b11 1
b01 G
12
b11 *
b1001 A
b1100 B
b01 -
b00001001 %
b11 C
b10 .
b11 '
1E
b00 >
b00001001 !
b11 ?
b00 "
b10 @
b00 8
b10110100 #
b00000000 9
b10010000 $
b0100100 ;
#171
15
#176
b00000000 3
b1110 B
b00 -
b0110 &
05
b00000110 D
b0000 6
0E
b10 (
b00 >
b00 )
b00000000 !
b1100 0
b00 ?
b10 "
b00 @
b10 8
b10101000 #
b00 *
b00000000 9
b01 :
b0000 A
b0011000 ;
#181
15
#186
b00000110 3
05
b0110 6
b01 7
b0010 /
b0111 0
b01 1
b10 G
02
b11 *
b0110 A
b1010 B
b10 -
b00000010 %
b10 C
b00 .
b0010 &
b00000010 D
b10 '
b10 >
b01 )
b00000110 !
b11 ?
b01 @
b01000110 #
b00000110 9
b00100000 $
b00 :
b0100000 ;
#191
15
#196
b00000000 3
05
b0000 6
b11 7
b0011 /
b1100 0
b11 1
b11 G
b00 *
b0000 A
b0100 B
b00 -
b00000011 %
b01 C
b0000 &
b00000000 D
b01 '
b00 (
b00 >
b00 )
b00000000 !
b00 ?
b00 "
b00 @
b00 8
b00110000 #
b00000000 9
b00110000 $
b0000000 ;
#201
15
#206
b1001 B
b00000100 %
b10 C
b01 .
b0010 &
05
b00000010 D
b10 '
b10 (
b10 7
b0100 /
b1000 0
b01 "
b10 1
b01 8
b00 G
b01001000 #
b01000000 $
b0001000 ;
#211
15
#216
b0111 B
b00000010 %
b01 C
b00 .
b0110 &
05
b00000110 D
b01 '
b0010 /
b11 "
b11 8
b10 G
b00111000 #
b00100000 $
b01 :
b0011000 ;
#221
15
#226
b1101 B
b00000011 %
b11 C
b00 .
b0001 &
05
b00000001 D
b11 '
b01 (
b01 7
b0011 /
b0100 0
b01 "
b01 1
b01 8
b11 G
b00110100 #
b00110000 $
b00 :
b0000100 ;
#231
15
#236
b1000 B
b10 -
b00000000 %
b10 C
b0000 &
05
b00000000 D
b10 '
b00 (
b00 7
b0000 /
b00000110 !
b0011 0
b11 ?
b00 "
b00 1
b01 @
b00 8
b00 G
b00011000 #
b11 *
b00000000 $
b0110 A
b0011000 ;
#241
15
#246
b00000000 !
b0100 B
b0000 0
b00 ?
b00 -
b01 C
b00 @
05
b00000000 #
b00 *
b01 '
b0000 A
b0000000 ;
#251
15
#256
b1000 B
b10 -
b00000010 %
b10 C
05
b10 '
b01 7
b0010 /
b00000110 !
b0111 0
b11 ?
b01 1
b01 @
b10 G
b00111000 #
b11 *
b00100000 $
b0110 A
b0011000 ;
#261
15
#266
b0000 B
b00 -
b00000000 %
b00 C
05
b00 '
b10 7
b0000 /
b00000000 !
b1001 0
b01 ?
b10 1
b00 @
b00 G
b00000000 #
b01 *
b00000000 $
b0000 A
b0000000 ;
#271
15
#276
b00000110 3
05
b0110 6
b11 7
b0011 /
b1111 0
b11 1
b11 G
b11 *
b0011 A
b0110 B
b11 -
b00000011 %
b01 C
b0110 &
b00000110 D
b01 '
b10 (
b10 >
b01 )
b00000011 !
b11 ?
b10 "
b10 8
b01011010 #
b00000110 9
b00110000 $
b01 :
b0100100 ;
#281
15
#286
b00000000 3
05
b0000 6
b01 7
b0000 /
b0100 0
b01 1
b00 G
b00 *
b0000 A
b0001 B
b00 -
b00000000 %
b00 C
b0001 &
b00000001 D
b00 '
b01 (
b00 >
b00 )
b00000000 !
b00 ?
b01 "
b01 8
b00000100 #
b00000000 9
b00000000 $
b00 :
b0000100 ;
#291
15
#296
b1000 B
b10 -
b00000010 %
b10 C
b0000 &
05
b00000000 D
b10 '
b00 (
b0010 /
b00000010 !
b0101 0
b01 ?
b00 "
b00 8
b10 G
b00101000 #
b01 *
b00100000 $
b0010 A
b0001000 ;
#301
15
#306
b00 -
b00000110 %
b01 .
05
b11 7
b0110 /
b00000100 !
b1110 0
b10 ?
b11 1
b01 @
b01110000 #
b10 *
b01100000 $
b0100 A
b0010000 ;
#311
15
#316
b00000000 3
b1001 B
b00000000 %
b00 .
b0000 &
05
b00000000 D
b0000 6
b00 (
b00 7
b0000 /
b00 >
b00000000 !
b0000 0
b00 ?
b01 "
b00 1
b00 @
b01 8
b00 G
b00000000 #
b00 *
b00000000 9
b00000000 $
b0000 A
b0000000 ;
#321
15
#326
b1000 B
b10 -
b00000010 %
05
b01 7
b0010 /
b00000110 !
b0111 0
b11 ?
b00 "
b01 1
b01 @
b00 8
b10 G
b00111000 #
b11 *
b00100000 $
b0110 A
b0011000 ;
#331
15
#336
b0100 B
b11 -
b00000000 %
b01 C
05
b01 '
b00 7
b0000 /
b00000011 !
b0011 0
b00 1
b00 @
b00 G
b00001100 #
b00000000 $
b0011 A
b0001100 ;
#341
15
#346
b00000100 3
b0110 B
b10 -
b00000010 %
b0100 &
05
b00000100 D
b0100 6
b10 7
b0010 /
b00 >
b01 )
b00000010 !
b1010 0
b10 ?
b10 "
b10 1
b10 8
b10 G
b00111100 #
b10 *
b00000100 9
b00100000 $
b01 :
b0010 A
b0011000 ;
#351
15
#356
b00000000 3
05
b0000 6
b00 7
b0000 /
b0000 0
b00 1
b00 G
b00 *
b0000 A
b0011 B
b00 -
b00000000 %
b00 C
b0000 &
b00000000 D
b00 '
b00 (
b00 >
b00 )
b00000000 !
b00 ?
b11 "
b11 8
b00000000 #
b00000000 9
b00000000 $
b00 :
b0000000 ;
#361
15
#366
b00000010 3
b0110 B
b01 -
b00000001 %
b01 C
b0010 &
05
b00000010 D
b01 '
b0010 6
b10 (
b01 7
b0001 /
b10 >
b00000001 !
b0101 0
b01 ?
b10 "
b01 1
b10 8
b01 G
b00011110 #
b01 *
b00000010 9
b00010000 $
b0001 A
b0001100 ;
#371
15
#376
b00000000 3
b0000 B
b00 -
b00000000 %
b00 C
b0000 &
05
b00000000 D
b00 '
b0000 6
b00 (
b00 7
b0000 /
b00 >
b00000000 !
b0011 0
b11 ?
b00 "
b00 1
b00 8
b00 G
b00000000 #
b11 *
b00000000 9
b00000000 $
b0000 A
b0000000 ;
#381
15
#386
b00000001 3
05
b0001 6
b10 7
b0110 /
b1001 0
b10 1
b10 G
b01 *
b0011 A
b1101 B
b11 -
b00000110 %
b11 C
b01 .
b0010 &
b00000010 D
b11 '
0E
b10 (
b01 >
b00000011 !
b01 ?
b01 "
b00 @
b01 8
b01110101 #
b00000001 9
b01100000 $
b0010100 ;
#391
15
#396
b00000011 3
b0001 B
b00 -
b00000000 %
b00 C
b00 .
05
b00 '
b0011 6
b0000 /
b11 >
b00000000 !
b1011 0
b11 ?
b00 G
b00001011 #
b11 *
b00000011 9
b00000000 $
b0000 A
b0001000 ;
#401
15
#406
b00000000 3
b0000 B
b00 "
b0000 &
05
b00000000 D
b00 8
b00000000 #
b00000000 9
b0000 6
b00 (
b00 >
b0000000 ;
#411
15
#416
b00000100 3
05
b0100 6
b01 7
b0011 /
b0110 0
b01 1
b11 G
b10 *
b0110 A
b1110 B
b10 -
b00000011 %
b11 C
b00 .
b0010 &
b00000010 D
b11 '
0E
b10 (
b00 >
b01 )
b00000110 !
b10 ?
b10 "
b01 @
b10 8
b01010100 #
b00000100 9
b00110000 $
b00 :
b0100000 ;
#421
15
#426
b00000011 3
05
b0011 6
b11 7
b0000 /
b1111 0
b11 1
b00 G
b11 *
b0000 A
b0001 B
b00 -
b00000000 %
b00 C
b0011 &
b00000011 D
b00 '
b11 (
b11 >
b00 )
b00000000 !
b11 ?
b01 "
b00 @
b01 8
b00001111 #
b00000011 9
b00000000 $
b0001100 ;
#431
15
#436
b00000000 3
b0000 B
b0000 &
05
b00000000 D
b0000 6
b00 (
b00 >
b1110 0
b10 ?
b00 "
b00 8
b00000000 #
b10 *
b00000000 9
b0000000 ;
#441
15
#446
b00000010 3
05
b0010 6
b01 7
b0011 /
b0101 0
b01 1
b11 G
02
b01 *
b0011 A
b1110 B
b11 -
b00000011 %
b11 C
b00 .
b0010 &
b00000010 D
b11 '
b10 (
b10 >
b00 )
b00000011 !
b01 ?
b10 "
b00 @
b10 8
b01000110 #
b00000010 9
b00110000 $
b00 :
b0010100 ;
#451
15
#456
b00001001 3
05
b1001 6
b00 7
b0000 /
b0011 0
b00 1
b00 G
b11 *
1+
b0000 A
b0011 B
b00 -
b00000000 %
b00 C
b0000 &
b00000000 D
b00 '
b00 (
b01 >
b10 )
b00000000 !
b11 ?
b11 "
b11 8
b00001001 #
b00001001 9
b00000000 $
b0000000 ;
#461
15
#466
b00000001 3
b0001 B
b0011 &
05
b00000011 D
b0001 6
b11 (
b11 7
b01 >
b00 )
b1101 0
b01 ?
b01 "
b11 1
b01 8
b00001101 #
b01 *
b00000001 9
0+
b0001100 ;
#471
15
#476
b00000010 3
b1110 B
b11 -
b00001001 %
b11 C
b10 .
b0110 &
05
b00000110 D
b11 '
b0010 6
b10 (
b1001 /
b10 >
b00000011 !
b10 "
b10 8
b01 G
12
b10110110 #
b00000010 9
b10010000 $
b01 :
b0011 A
b0100100 ;
#481
15
#486
b0110 B
b01 -
b00000010 %
b01 C
b00 .
b0100 &
05
b00000100 D
b01 '
b00 (
b10 7
b0010 /
b00000001 !
b1001 0
b10 1
b10 G
02
b00110110 #
b00100000 $
b0001 A
b0010100 ;
#491
15
#496
b00000100 3
b10 -
05
b0100 6
b00 >
b01 )
b00000010 !
b1010 0
b10 ?
b00111100 #
b10 *
b00000100 9
b0010 A
b0011000 ;
#501
15
#506
b0010 0
b00000000 %
b00 1
b0000 &
05
b00000000 D
b00 G
b00001100 #
b00000000 $
b00 :
b00 7
b0000 /
b0001000 ;
#511
15
#516
b00000000 3
b0100 B
b00000010 %
05
b0000 6
b10 7
b0010 /
b00 )
b1010 0
b00 "
b10 1
b00 8
b10 G
b00101000 #
b00000000 9
b00100000 $
#521
15
#526
b00001001 3
05
b1001 6
b00 7
b0000 /
b0011 0
b00 1
b00 G
b11 *
1+
b0011 A
b0111 B
b11 -
b00000000 %
b0000 &
b00000000 D
b00 (
b01 >
b10 )
b00000011 !
b11 ?
b11 "
b11 8
b00010101 #
b00001001 9
b00000000 $
b00 :
b0001100 ;
#531
15
#536
b00000000 3
05
b0000 6
b10 7
b0100 /
b1000 0
b10 1
b00 *
0+
b0000 A
b1011 B
b00 -
b00000100 %
b10 C
b01 .
b0110 &
b00000110 D
b10 '
b10 (
b00 >
b00 )
b00000000 !
b00 ?
b00 @
b01011000 #
b00000000 9
b01000000 $
b01 :
b0011000 ;
#541
15
#546
b1100 B
b00000011 %
b11 C
b00 .
b0000 &
05
b00000000 D
b11 '
b00 (
b01 7
b0011 /
b0100 0
b00 "
b01 1
b00 8
b11 G
b00110000 #
b00110000 $
b00 :
b0000000 ;
#551
15
#556
b0011 B
b00000000 %
b00 C
b0011 &
05
b00000011 D
b00 '
b11 (
b0000 /
b11 "
b11 8
b00 G
b00001100 #
b00000000 $
b0001100 ;
#561
15
#566
b1000 B
b10 -
b00000000 %
b10 C
b0000 &
05
b00000000 D
b10 '
b00 (
b00 7
b0000 /
b00000010 !
b0001 0
b01 ?
b00 "
b00 1
b00 8
b00 G
b00001000 #
b01 *
b00000000 $
b0010 A
b0001000 ;
#571
15
#576
b00000000 3
05
b0000 6
b11 7
b1001 /
b1100 0
b11 1
b01 G
12
b00 *
b0000 A
b1111 B
b00 -
b00001001 %
b11 C
b10 .
b1001 &
b00001001 D
b11 '
1=
b01 (
b00 >
b00000000 !
b00 ?
b11 "
b11 8
b10110100 #
b00000000 9
b10010000 $
b10 :
b0100100 ;
#581
15
#586
b00000110 3
b0010 B
b00000000 %
b00 C
b00 .
b0110 &
05
b00000110 D
b00 '
b0110 6
0=
b10 (
b0000 /
b10 >
b01 )
b1111 0
b11 ?
b10 "
b10 8
b00 G
02
b00011110 #
b11 *
b00000110 9
b00000000 $
b01 :
b0011000 ;
#591
15
#596
b00000000 3
05
b0000 6
b1001 /
b1100 0
b01 G
12
b00 *
b0000 A
b1100 B
b00 -
b00001001 %
b11 C
b10 .
b0000 &
b00000000 D
b11 '
0E
b00 (
b00 >
b00 )
b00000000 !
b00 ?
b00 "
b00 @
b00 8
b10010000 #
b00000000 9
b10010000 $
b00 :
b0000000 ;
#601
15
#606
b0000 B
b00000000 %
b00 C
b00 .
05
b00 '
b00 7
b0000 /
b0000 0
b00 1
b00 G
02
b00000000 #
b00000000 $
#611
15
#616
b00000001 3
b0101 B
b01 -
b00000010 %
b01 C
b0010 &
05
b00000010 D
b01 '
b0001 6
b10 (
b10 7
b0010 /
b01 >
b00000001 !
b1001 0
b01 ?
b01 "
b10 1
b01 8
b10 G
b00101101 #
b01 *
b00000001 9
b00100000 $
b0001 A
b0001100 ;
#621
15
#626
b00000010 3
05
b0010 6
b11 7
b1001 /
b1110 0
b11 1
b01 G
12
b10 *
b0110 A
b1101 B
b10 -
b00001001 %
b11 C
b10 .
b0011 &
b00000011 D
b11 '
b11 (
b10 >
b00000110 !
b10 ?
b01 @
b10110110 #
b00000010 9
b10010000 $
b0100100 ;
#631
15
#636
b00000011 3
b0101 B
b11 -
b00000011 %
b01 C
b00 .
05
b01 '
b0011 6
b0011 /
b11 >
b00000011 !
b1111 0
b11 ?
b00 @
b11 G
02
b01001011 #
b11 *
b00000011 9
b00110000 $
b0011 A
b0011000 ;
#641
15
#646
b00000000 3
b1000 B
b10 -
b00000010 %
b10 C
b00 .
b0000 &
05
b00000000 D
b10 '
b0000 6
b00 (
b01 7
b0010 /
b00 >
b00000110 !
b0111 0
b00 "
b01 1
b01 @
b00 8
b10 G
b00111000 #
b00000000 9
b00100000 $
b0110 A
#651
15
#656
b00000100 3
05
b0100 6
b11 7
b0000 /
b1110 0
b11 1
b00 G
b10 *
b0000 A
b0010 B
b00 -
b00000000 %
b00 C
b0110 &
b00000110 D
b00 '
b10 (
b00 >
b01 )
b00000000 !
b10 ?
b10 "
b00 @
b10 8
b00011100 #
b00000100 9
b00000000 $
b01 :
b0011000 ;
#661
15
#666
b00000000 3
b0100 &
05
b00000100 D
b0000 6
b00 (
b10 7
b00 )
b1000 0
b00 ?
b10 1
b00010000 #
b00 *
b00000000 9
b0010000 ;
#671
15
#676
b00000110 3
05
b0110 6
b11 7
b0110 /
b1111 0
b11 1
b10 G
b11 *
b0110 A
b1010 B
b10 -
b00000110 %
b10 C
b01 .
b0110 &
b00000110 D
b10 '
b10 (
b10 >
b01 )
b00000110 !
b11 ?
b01 @
b10010110 #
b00000110 9
b01100000 $
b0110000 ;
#681
15
#686
b1110 B
b01 -
b00000000 %
b11 C
b00 .
b0000 &
05
b00000000 D
b11 '
1E
b00 (
b00 7
b0000 /
b00001001 !
b0011 0
b00 1
b10 @
b00 G
02
b00101010 #
b00000000 $
b00 :
b1001 A
b0100100 ;
#691
15
#696
b00000000 3
b0100 B
b11 -
b01 C
05
b01 '
b0000 6
0E
b00 >
b00 )
b00000011 !
b00 "
b00 @
b00 8
b00001100 #
b00000000 9
b0011 A
b0001100 ;
#701
15
#706
b01 -
b00000011 %
05
b11 7
b0011 /
b00000001 !
b1101 0
b01 ?
b11 1
b11 G
b00110100 #
b01 *
b00110000 $
b0001 A
b0000100 ;
#711
15
#716
b00000011 3
b0001 B
b00 -
b00000000 %
b00 C
b0000 &
05
b00000000 D
b00 '
b0011 6
b00 (
b00 7
b0000 /
b11 >
b00000000 !
b0011 0
b11 ?
b01 "
b00 1
b01 8
b00 G
b00000011 #
b11 *
b00000011 9
b00000000 $
b0000 A
b0000000 ;
#721
15
#726
b00000000 3
b1100 B
b01 -
b11 C
05
b11 '
b0000 6
1E
b00 >
b00001001 !
b00 "
b10 @
b00 8
b00100100 #
b00000000 9
b1001 A
b0100100 ;
#731
15
#736
b00000001 3
05
b0001 6
b01 7
b0010 /
b0101 0
b01 1
b10 G
b01 *
b0010 A
b1001 B
b10 -
b00000010 %
b10 C
b0001 &
b00000001 D
b10 '
0E
b01 (
b01 >
b00000010 !
b01 ?
b01 "
b00 @
b01 8
b00101101 #
b00000001 9
b00100000 $
b0001100 ;
#741
15
#746
b00000110 3
b1011 B
b00 -
b00000000 %
b0000 &
05
b00000000 D
b0110 6
b00 (
b00 7
b0000 /
b10 >
b01 )
b00000100 !
b0010 0
b10 ?
b11 "
b00 1
b01 @
b11 8
b00 G
b00010110 #
b10 *
b00000110 9
b00000000 $
b0100 A
b0010000 ;
#751
15
#756
b00000001 3
b0001 B
b00 C
05
b00 '
b0001 6
b01 >
b00 )
b00000000 !
b0001 0
b01 ?
b01 "
b00 @
b01 8
b00000001 #
b01 *
b00000001 9
b0000 A
b0000000 ;
#761
15
#766
b00000000 3
b1000 B
b00 -
b00000010 %
b10 C
05
b10 '
b0000 6
b01 7
b0010 /
b00 >
b00000100 !
b0110 0
b10 ?
b00 "
b01 1
b01 @
b00 8
b10 G
b00110000 #
b10 *
b00000000 9
b00100000 $
b0100 A
b0010000 ;
#771
15
#776
b00000000 3
b1101 B
b00 -
b00000011 %
b11 C
b0001 &
05
b00000001 D
b11 '
b0000 6
b01 (
b0011 /
b00 >
b00000000 !
b0100 0
b00 ?
b01 "
b00 @
b01 8
b11 G
b00110100 #
b00 *
b00000000 9
b00110000 $
b0000 A
b0000100 ;
#781
15
#786
b00000010 3
05
b0010 6
b10 7
b0010 /
b1001 0
b10 1
b10 G
b01 *
b0001 A
b0110 B
b01 -
b00000010 %
b01 C
b0100 &
b00000100 D
b01 '
b00 (
b10 >
b00000001 !
b01 ?
b10 "
b10 8
b00110110 #
b00000010 9
b00100000 $
b01 :
b0010100 ;
#791
15
#796
b00000000 3
b0100 B
b00 "
b0000 &
05
b00000000 D
b00 8
b00100100 #
b00000000 9
b0000 6
b00 :
b00 >
b0000100 ;
#801
15
#806
b00000010 3
b1110 B
b11 -
b00000000 %
b11 C
b00 .
b0000 &
05
b00000000 D
b11 '
b0010 6
b00 7
b0000 /
b10 >
b00000011 !
b0001 0
b10 "
b00 1
b10 8
b00 G
b00001110 #
b00000010 9
b00000000 $
b00 :
b0011 A
b0001100 ;
#811
15
#816
b00000000 3
b0100 B
b11 -
b00000010 %
b01 C
05
b01 '
b0000 6
b10 7
b0010 /
b00 >
b00000011 !
b1011 0
b11 ?
b00 "
b10 1
b00 8
b10 G
b00101100 #
b11 *
b00000000 9
b00100000 $
b0011 A
b0001100 ;
#821
15
#826
b00000110 3
05
b0110 6
b01 7
b0000 /
b0110 0
b01 1
b00 G
b10 *
0+
b0000 A
b0011 B
b00 -
b00000000 %
b00 C
b0011 &
b00000011 D
b00 '
b11 (
b10 >
b01 )
b00000000 !
b10 ?
b11 "
b11 8
b00010010 #
b00000110 9
b00000000 $
b00 :
b0001100 ;
#831
15
#836
b00000000 3
b1011 B
b00000010 %
b10 C
05
b10 '
b0000 6
b0010 /
b00 >
b00 )
b00000000 !
b0100 0
b00 ?
b00 @
b10 G
b00101100 #
b00 *
b00000000 9
b00100000 $
b0000 A
b0001100 ;
#841
15
#846
b1100 B
b10 -
b00000011 %
b11 C
b0000 &
05
b00000000 D
b11 '
b00 (
b0011 /
b00000110 !
b0110 0
b10 ?
b00 "
b01 @
b00 8
b11 G
b01001000 #
b10 *
b00110000 $
b0110 A
b0011000 ;
#851
15
#856
b00000010 3
05
b0010 6
b00 7
b0000 /
b0001 0
b00 1
b00 G
b01 *
b0010 A
b1010 B
b10 -
b00000000 %
b10 C
b0000 &
b00000000 D
b10 '
b00 (
b10 >
b00 )
b00000010 !
b01 ?
b10 "
b00 @
b10 8
b00001010 #
b00000010 9
b00000000 $
b0001000 ;
#861
15
#866
b00000010 3
05
b0010 6
b11 7
b1001 /
b1110 0
b11 1
b01 G
12
b10 *
b0110 A
b1101 B
b10 -
b00001001 %
b11 C
b10 .
b0011 &
b00000011 D
b11 '
b11 (
b10 >
b00000110 !
b10 ?
b01 "
b01 @
b01 8
b10110110 #
b00000010 9
b10010000 $
b0100100 ;
#871
15
#876
b00000001 3
b0001 B
b00 -
b00000000 %
b00 C
b00 .
05
b00 '
b0001 6
b0000 /
b01 >
b00000000 !
b1101 0
b01 ?
b00 @
b00 G
02
b00001101 #
b01 *
b00000001 9
b00000000 $
b0000 A
b0001100 ;
#881
15
#886
b00000000 3
05
b0000 6
b00 7
b0000 /
b0010 0
b00 1
b00 G
02
b10 *
b0110 A
b1100 B
b10 -
b00000000 %
b11 C
b00 .
b0000 &
b00000000 D
b11 '
b00 (
b00 >
b00000110 !
b10 ?
b00 "
b01 @
b00 8
b00011000 #
b00000000 9
b00000000 $
b0011000 ;
#891
15
#896
b00000110 3
05
b0110 6
b11 7
b0011 /
b1110 0
b11 1
b11 G
b0010 A
b0111 B
b00000011 %
b01 C
b1001 &
b00001001 D
b01 '
1=
b01 (
b10 >
b01 )
b00000010 !
b11 "
b00 @
b11 8
b01100010 #
b00000110 9
b00110000 $
b10 :
b0101100 ;
#901
15
#906
b00000010 3
05
b0010 6
b00 7
b0000 /
b0001 0
b00 1
b00 G
b01 *
b0001 A
b0110 B
b01 -
b00000000 %
b0000 &
b00000000 D
0=
b00 (
b10 >
b00 )
b00000001 !
b01 ?
b10 "
b10 8
b00000110 #
b00000010 9
b00000000 $
b00 :
b0000100 ;
#911
15
#916
b00000000 3
b0011 B
b00 -
b00 C
05
b00 '
b0000 6
b00 >
b00000000 !
b0000 0
b00 ?
b11 "
b11 8
b00000000 #
b00 *
b00000000 9
b0000 A
b0000000 ;
#921
15
#926
b1000 B
b00000010 %
b10 C
05
b10 '
b01 7
b0010 /
b00000100 !
b0110 0
b10 ?
b00 "
b01 1
b01 @
b00 8
b10 G
b00110000 #
b10 *
b00100000 $
b0100 A
b0010000 ;
#931
15
#936
b00000011 3
05
b0011 6
b00 7
b0000 /
b0001 0
b00 1
b00 G
b01 *
b0001 A
b0111 B
b01 -
b00000000 %
b01 C
b0000 &
b00000000 D
b01 '
b00 (
b11 >
b00 )
b00000001 !
b01 ?
b11 "
b00 @
b11 8
b00000111 #
b00000011 9
b00000000 $
b0000100 ;
#941
15
#946
b00000001 3
b0101 B
b00000010 %
b0010 &
05
b00000010 D
b0001 6
b10 (
b10 7
b0010 /
b01 >
b1001 0
b01 "
b10 1
b01 8
b10 G
b00101101 #
b00000001 9
b00100000 $
b0001100 ;
#951
15
#956
b00000000 3
05
b0000 6
b00 7
b0000 /
b0000 0
b00 1
b00 G
b00 *
b0000 A
b1111 B
b00 -
b00000000 %
b11 C
b00 .
b0000 &
b00000000 D
b11 '
b00 (
b00 >
b00000000 !
b00 ?
b11 "
b11 8
b00000000 #
b00000000 9
b00000000 $
b00 :
b0000000 ;
#961
15
#966
b00000001 3
b1001 B
b10 -
b00000100 %
b10 C
b01 .
b0010 &
05
b00000010 D
b10 '
b0001 6
b10 (
b10 7
b0100 /
b01 >
b00000010 !
b1001 0
b01 ?
b01 "
b10 1
b01 8
b01010001 #
b01 *
b00000001 9
b01000000 $
b0010 A
b0010000 ;
#971
15
#976
b00000110 3
b1010 B
b00000110 %
b0110 &
05
b00000110 D
b0110 6
b10 (
b11 7
b0110 /
b10 >
b01 )
b00000110 !
b1111 0
b11 ?
b10 "
b11 1
b01 @
b10 8
b10 G
b10010110 #
b11 *
b00000110 9
b01100000 $
b01 :
b0110 A
b0110000 ;
#981
15
#986
b00000000 3
05
b0000 6
b01 7
b0000 /
b0100 0
b01 1
b00 G
b00 *
b0000 A
b0010 B
b00 -
b00000000 %
b00 C
b00 .
b0010 &
b00000010 D
b00 '
b00 >
b00 )
b00000000 !
b00 ?
b00 @
b00001000 #
b00000000 9
b00000000 $
b00 :
b0001000 ;
#991
15
