test_run_dir/Karatsuba_should_pass/Karatsuba8x8.vcd
$date
2023-11-30T09:15+0000
$end
$version
0.2
$end
$comment

$end
$timescale 1ns  $end
$scope module Karatsuba8x8 $end
 $var wire 1 ! Ka8_2 $end
 $var wire 16 # ad $end
 $var wire 16 * io_out $end
 $var wire 16 , T0 $end
 $var wire 16 C ac $end
 $var wire 1 W Ka8_4 $end
 $var wire 1 j Ka8_1 $end
 $var wire 8 t io_b $end
 $var wire 16 "" bd $end
 $var wire 1 "' clock $end
 $var wire 1 "3 Ka8_3 $end
 $var wire 16 "4 T1 $end
 $var wire 13 "8 psum $end
 $var wire 8 "R io_a $end
 $var wire 16 "Z bc $end
 $var wire 1 "[ reset $end
  $scope module Ka8_3.Ka4_4 $end
  $upscope $end
  $scope module Ka8_1.Ka4_3 $end
  $upscope $end
  $scope module Ka8_4.Ka4_1 $end
  $upscope $end
  $scope module Ka8_1 $end
   $var wire 1 % Ka4_2 $end
   $var wire 8 ' io_out $end
   $var wire 8 2 bc $end
   $var wire 8 B ad $end
   $var wire 8 T T0 $end
   $var wire 1 V Ka4_4 $end
   $var wire 4 Z io_b $end
   $var wire 8 b ac $end
   $var wire 1 h Ka4_1 $end
   $var wire 1 "0 Ka4_3 $end
   $var wire 8 "< bd $end
   $var wire 4 "? io_a $end
   $var wire 7 "N psum $end
   $var wire 8 "a T1 $end
    $scope module Ka4_2 $end
     $var wire 2 $ io_out_hi $end
     $var wire 4 U io_out $end
     $var wire 2 [ io_b $end
     $var wire 1 d temp $end
     $var wire 2 { io_out_lo $end
     $var wire 2 "B io_a $end
    $upscope $end
    $scope module Ka4_4 $end
     $var wire 2 0 io_a $end
     $var wire 2 Q io_out_hi $end
     $var wire 2 "; io_b $end
     $var wire 2 "K io_out_lo $end
     $var wire 1 "M temp $end
     $var wire 4 "^ io_out $end
    $upscope $end
    $scope module Ka4_3 $end
     $var wire 4 6 io_out $end
     $var wire 2 > io_out_hi $end
     $var wire 2 y io_b $end
     $var wire 1 "$ temp $end
     $var wire 2 ", io_out_lo $end
     $var wire 2 "e io_a $end
    $upscope $end
    $scope module Ka4_1 $end
     $var wire 2 ? io_b $end
     $var wire 2 E io_out_lo $end
     $var wire 1 G temp $end
     $var wire 2 "! io_a $end
     $var wire 4 "/ io_out $end
     $var wire 2 "E io_out_hi $end
    $upscope $end
  $upscope $end
  $scope module Ka8_1.Ka4_4 $end
  $upscope $end
  $scope module Ka8_4.Ka4_2 $end
  $upscope $end
  $scope module Ka8_2 $end
   $var wire 1 & Ka4_1 $end
   $var wire 1 9 Ka4_4 $end
   $var wire 8 H bd $end
   $var wire 1 X Ka4_3 $end
   $var wire 8 i T1 $end
   $var wire 4 | io_b $end
   $var wire 8 ") bc $end
   $var wire 1 "- Ka4_2 $end
   $var wire 8 "F ad $end
   $var wire 8 "O T0 $end
   $var wire 8 "T io_out $end
   $var wire 4 "\ io_a $end
   $var wire 8 "b ac $end
   $var wire 7 "i psum $end
    $scope module Ka4_2 $end
     $var wire 4 4 io_out $end
     $var wire 2 : io_b $end
     $var wire 2 R io_a $end
     $var wire 2 g io_out_lo $end
     $var wire 2 "Y io_out_hi $end
     $var wire 1 "j temp $end
    $upscope $end
    $scope module Ka4_1 $end
     $var wire 2 8 io_a $end
     $var wire 2 N io_out_lo $end
     $var wire 4 n io_out $end
     $var wire 1 "H temp $end
     $var wire 2 "J io_out_hi $end
     $var wire 2 "` io_b $end
    $upscope $end
    $scope module Ka4_3 $end
     $var wire 1 < temp $end
     $var wire 2 J io_out_hi $end
     $var wire 2 P io_b $end
     $var wire 2 u io_a $end
     $var wire 2 "@ io_out_lo $end
     $var wire 4 "_ io_out $end
    $upscope $end
    $scope module Ka4_4 $end
     $var wire 2 \ io_out_hi $end
     $var wire 1 ^ temp $end
     $var wire 2 v io_b $end
     $var wire 2 "1 io_a $end
     $var wire 4 "D io_out $end
     $var wire 2 "P io_out_lo $end
    $upscope $end
  $upscope $end
  $scope module Ka8_2.Ka4_1 $end
  $upscope $end
  $scope module Ka8_4.Ka4_3 $end
  $upscope $end
  $scope module Ka8_2.Ka4_2 $end
  $upscope $end
  $scope module Ka8_3 $end
   $var wire 4 . io_a $end
   $var wire 1 / Ka4_3 $end
   $var wire 8 ; bc $end
   $var wire 7 @ psum $end
   $var wire 8 F ad $end
   $var wire 8 K T0 $end
   $var wire 8 f ac $end
   $var wire 8 r io_out $end
   $var wire 1 w Ka4_2 $end
   $var wire 1 ". Ka4_1 $end
   $var wire 4 "5 io_b $end
   $var wire 1 ": Ka4_4 $end
   $var wire 8 "= bd $end
   $var wire 8 "X T1 $end
    $scope module Ka4_4 $end
     $var wire 2 ( io_b $end
     $var wire 1 5 temp $end
     $var wire 2 c io_out_hi $end
     $var wire 2 k io_a $end
     $var wire 4 x io_out $end
     $var wire 2 "V io_out_lo $end
    $upscope $end
    $scope module Ka4_2 $end
     $var wire 2 + io_a $end
     $var wire 2 o io_out_lo $end
     $var wire 2 "2 io_b $end
     $var wire 1 "9 temp $end
     $var wire 4 "] io_out $end
     $var wire 2 "g io_out_hi $end
    $upscope $end
    $scope module Ka4_1 $end
     $var wire 4 - io_out $end
     $var wire 2 Y io_out_lo $end
     $var wire 2 q io_b $end
     $var wire 1 } temp $end
     $var wire 2 "Q io_a $end
     $var wire 2 "S io_out_hi $end
    $upscope $end
    $scope module Ka4_3 $end
     $var wire 2 1 io_out_hi $end
     $var wire 2 A io_a $end
     $var wire 2 "( io_out_lo $end
     $var wire 4 "> io_out $end
     $var wire 2 "U io_b $end
     $var wire 1 "d temp $end
    $upscope $end
  $upscope $end
  $scope module Ka8_4.Ka4_4 $end
  $upscope $end
  $scope module Ka8_2.Ka4_3 $end
  $upscope $end
  $scope module Ka8_4 $end
   $var wire 1 7 Ka4_2 $end
   $var wire 8 D bd $end
   $var wire 8 M io_out $end
   $var wire 4 S io_a $end
   $var wire 1 ] Ka4_4 $end
   $var wire 7 _ psum $end
   $var wire 8 e T1 $end
   $var wire 1 s Ka4_1 $end
   $var wire 8 "% bc $end
   $var wire 1 "A Ka4_3 $end
   $var wire 8 "C ad $end
   $var wire 8 "I T0 $end
   $var wire 8 "c ac $end
   $var wire 4 "f io_b $end
    $scope module Ka4_2 $end
     $var wire 2 " io_out_hi $end
     $var wire 2 I io_b $end
     $var wire 1 L temp $end
     $var wire 2 z io_out_lo $end
     $var wire 2 "# io_a $end
     $var wire 4 "6 io_out $end
    $upscope $end
    $scope module Ka4_1 $end
     $var wire 2 ) io_b $end
     $var wire 1 3 temp $end
     $var wire 2 l io_a $end
     $var wire 2 m io_out_lo $end
     $var wire 2 "7 io_out_hi $end
     $var wire 4 "W io_out $end
    $upscope $end
    $scope module Ka4_3 $end
     $var wire 2 = io_out_hi $end
     $var wire 2 a io_b $end
     $var wire 1 p temp $end
     $var wire 4 ~ io_out $end
     $var wire 2 "+ io_out_lo $end
     $var wire 2 "L io_a $end
    $upscope $end
    $scope module Ka4_4 $end
     $var wire 2 O io_out_hi $end
     $var wire 4 ` io_out $end
     $var wire 2 "& io_b $end
     $var wire 1 "* temp $end
     $var wire 2 "G io_out_lo $end
     $var wire 2 "h io_a $end
    $upscope $end
  $upscope $end
  $scope module Ka8_3.Ka4_1 $end
  $upscope $end
  $scope module Ka8_2.Ka4_4 $end
  $upscope $end
  $scope module Ka8_3.Ka4_2 $end
  $upscope $end
  $scope module Ka8_1.Ka4_1 $end
  $upscope $end
  $scope module Ka8_3.Ka4_3 $end
  $upscope $end
  $scope module Ka8_1.Ka4_2 $end
  $upscope $end
$upscope $end
$enddefinitions $end
$dumpvars
b00 v
0X
b00 a
b00 "`
b00 Y
b00 "K
b00000000 b
b00000000 M
0&
b00 [
b00 >
b00 )
b00000000 2
b0000 U
b00 "G
b0000000000000 "8
0V
b00 ",
b00000000 "X
b0000 "D
b00000000 "R
b00000000 "=
0"[
b0000 6
05
b00 "(
b00000000 "T
b0000 .
b0000 "]
0L
b0000000000000000 ""
b00 "7
b00000000 "c
0/
b00 0
b00 8
b00 y
b0000000 "i
b0000 "W
0":
b00000000 ;
b00 {
0]
b00 "e
b00 I
b0000 `
b00 u
0W
b0000000 _
b0000 "6
b0000000000000000 *
0%
0"j
b0000 Z
b00 "L
b00000000 "F
b00000000 ")
0p
0"d
b00 q
b0000000000000000 C
b00 \
b00 "1
b00000000 e
0!
b00 "
b0000 "^
b00 "+
b0000000 @
b00000000 "%
b00 m
b00 "B
0".
b00000000 "<
b00000000 D
b00 g
b00 R
b0000 "\
b00000000 r
0"*
b00 "!
0w
b00 c
b00 N
0"$
b00 1
b00000000 f
b0000 |
b00 +
b00 "Q
b0000 -
b00 J
b0000 "5
b00000000 "C
b00000000 "b
b0000 "/
b0000 S
0"9
b00 "E
0"H
0"3
07
b0000 "_
b00 l
09
0"-
b00 :
b0000 n
b0000 4
b00 Q
b00 ";
b00 "&
b0000000000000000 #
0"'
03
b0000000000000000 "Z
b0000 ">
b00000000 T
b00 "V
b00 O
b00 "P
b0000000 "N
b00 "g
b00 "J
b00000000 i
b00000000 "a
0"M
b0000000000000000 ,
0<
b00 E
b00 =
b00 (
b00000000 F
b00 ?
b00000000 H
b0000 "f
0j
b00 k
b00 "@
b00 A
b00000000 t
b00 $
b00000000 B
0d
b00 P
b00000000 '
b00 o
b00 "Y
0"0
b0000 ~
0}
0h
b00 "S
b0000 "?
b0000 x
b00 "U
0"A
b00 "#
b00000000 "O
b00 z
0G
b00 "2
b00000000 "I
0s
0^
b0000000000000000 "4
b00000000 K
b00 "h
$end
#0
1"[
#1
1"'
#6
b01 "+
b00001001 "%
b1011 S
b0011 6
0"'
b10000100 M
b0110 "6
b01 "!
b11 y
b00000011 2
b0001111001101100 *
b0100001100000 "8
b10 "#
b11 I
b01 A
b0001011000000000 ,
b11 u
b0000000000010110 C
b0001 .
b1100 "f
b01 "Q
b01100000 "I
b0000000000001100 "4
b1100 Z
b10 "h
b10 =
b10 (
b10 "`
b10 q
b01 \
b01 "
b1011 "\
b11 ",
b10 R
b00000010 "X
b1001 ~
b00000110 i
b11 a
b0000000000000010 "Z
b10110001 "R
b00000010 "=
b10 N
b0010000 "i
b00010110 "T
b0001 "?
b10 z
b0000000000001100 ""
b00000110 H
b0001100 "N
b0010 |
b00101100 t
b0100100 _
b0010 -
b01 "e
b10 v
b10 Y
b00001100 '
b01 "J
b0010 "5
1p
b11 [
b11 "L
b0100 "D
b00000010 r
b00000110 "c
b11 8
b0000000010000100 #
0"[
b00000100 "F
b10 "1
b11 l
b0110 n
#11
1"'
#16
b00 "+
1}
b00000000 "%
b1000 S
b0000 6
0"'
b00000000 M
b10 "S
b0000 "6
b11 "!
b00 y
b00000000 2
b0001100010010000 *
b0000010010000 "8
b00 I
b11 A
b0001100000000000 ,
b00 u
b0000000000011000 C
b0011 .
b0000 "f
b11 "Q
b00000000 "I
b0000000000000000 "4
b0000 Z
b00 =
b11 (
b11 "`
b11 q
b00 "
b1000 "\
b00 ",
0"$
b00001001 "X
b0000 ~
b00000000 i
b00 a
b0000000000001001 "Z
b10000011 "R
b00001001 "=
b00 N
b0011000 "i
b00011000 "T
b0011 "?
b00 z
b0000000000000000 ""
b00000000 H
b0000000 "N
b0011 |
b00110000 t
b0000000 _
b1001 -
b11 "e
b10 "P
b11 v
b01 Y
b00000000 '
b00 "J
b0011 "5
0p
b00 [
b00 >
b00 "L
b0110 "D
b00001001 r
b00000000 "c
b00 8
b0000000000000000 #
b00000110 "F
b00 l
b0000 n
#21
1"'
#26
b00000011 f
b0011 4
b01 "B
0}
b0100 S
b00110000 K
b0011 6
b00001001 "<
0"'
b00000001 b
b00011100 M
b01 0
b01 "S
b1001 ">
b0001 "6
b01 y
1G
b00000011 2
b11 "U
b0100000000010001 *
b0011111100000 "8
b01 "#
b01 {
b01 I
b0011100000000000 ,
1"d
b00110000 "O
b11 "2
b0011 `
b0000000000111000 C
b0111 .
b0111 "f
b00010000 "I
b0000000000110001 "4
b11 o
b0111 Z
b01 E
b01 "h
b10 (
b10 "`
b11 "K
b10 q
b00 \
b00010000 T
b11 ?
b00000011 "b
b10 "E
b01 k
b01 "(
b0100 "\
b11 "G
b11 P
b00001001 ;
b0011 "^
b11 ",
b11 g
b01 R
b00000110 "X
b00000011 "C
b11 ";
b11 "&
b01 a
b0000000001100010 "Z
b01000111 "R
b00000110 "=
b00000010 F
b10 1
b0001000 "i
b00111000 "T
b0111 "?
b01 z
b0000000000110001 ""
b10 "V
b01 +
b0011000 "N
b1110 |
b11100111 t
b0001100 _
b00000011 B
b0110 -
b10 "P
b10 v
b10 Y
b00110001 '
b1110 "5
b0010 x
b01 [
b11 )
b00001001 "a
b0010 "D
b01100010 r
b1001 "/
b0001 U
b0101100 @
b00000001 "c
b0000000000011100 #
b00000010 "F
b01 "1
b11 :
b0011 "]
#31
1"'
#36
b00000000 f
b0000 4
b1000 S
b00000000 K
b0110 6
b00 "Y
b00000100 "<
0"'
b00000011 b
b01110000 M
b0000 ">
b0110 "6
b10 "!
b11 y
0G
b00000110 2
b00 "U
b0001100000010100 *
b0011111000000 "8
b10 "#
b11 {
b11 I
b10 A
b0001000000000000 ,
0"d
b00000000 "O
b00 "2
b0100 `
b0000000000010000 C
b0110 .
b1110 "f
b10 "Q
b01100000 "I
b0000000001010100 "4
b00 o
b1110 Z
b00 E
b10 "h
b10 "K
b01 \
b00110000 T
b10 ?
b00000000 "b
b01 "
b01 "E
b00 "(
b1000 "\
b00 "G
b00 P
b00000000 ;
b0010 "^
b10 ",
b00 g
b10 R
b00000100 "X
b00000100 "C
b10 ";
b10 "&
b11 a
b0000000000001100 "Z
b10000110 "R
b00000100 "=
b00 1
b0010000 "i
b00010000 "T
b0110 "?
b10 z
b0000000001010100 ""
b0100000 "N
b0010 |
b00101110 t
b0010000 _
b00000010 B
b0100 -
b10 "e
b00 "P
b00 Y
b01010100 '
b0010 "5
b11 [
b01 >
b10 )
b00000100 "a
b0100 "D
b00001100 r
b0100 "/
b0011 U
b0001000 @
b00000110 "c
b0000000001110000 #
b00000100 "F
b10 "1
b01 O
b00 :
b0000 "]
#41
1"'
#46
b0000 "^
b00 "B
b00000000 "C
b00 ";
b00 "&
b00000000 "<
0"'
b0000000000000100 "Z
b00000000 b
b10000010 "R
b01100000 M
b00 0
b00000000 F
b0010 "?
b0000000000011000 ""
b0001011001011000 *
b00 {
b0011001000000 "8
b00 "V
b00 +
b0011000 "N
b00101100 t
b0000000 _
b00000000 B
b0000 `
b0010 .
b1100 "f
b0000000000011000 "4
b00011000 '
b1100 Z
b0000 x
b00 "K
b00 )
b00000000 "a
b00000000 T
b00 ?
b00000100 r
b0000 "/
b0000 U
b0000000 @
b00 "E
b00 k
b0000000001100000 #
b00 O
#51
1"'
#56
b0000 n
b10 "B
b00000110 "%
b0011 S
b0000 6
0"'
b00000100 b
b00011000 M
b10 0
b00 "S
b0000 "6
b00 "!
b10 y
b00000000 2
b0000000111000000 *
b0000110000000 "8
b00 "#
b00 {
b10 I
b00 A
b0000000000000000 ,
b11 u
b0000000000000000 C
b1000 .
b1000 "f
b00 "Q
b00000000 "I
b0000000001000000 "4
b1000 Z
b00 "h
b01 =
b00 (
b00 "`
b00 q
b00 \
b01000000 T
b00 "
b10 k
b01 $
b0011 "\
b00 ",
b00 R
b00000000 "X
b0110 ~
b00000000 i
b10 a
b0000000000000000 "Z
b00111000 "R
b00000000 "=
b00 c
b00 N
b00000000 F
b0000000 "i
b00000000 "T
b1000 "?
b00 z
b0000000001000000 ""
b00000000 H
b10 +
b0000000 "N
b0000 |
b00001000 t
b0011000 _
b0000 -
b00 "e
b00 v
b01000000 '
b00 "J
b0000 "5
b0000 x
0p
b10 [
b00 >
b11 "L
b0000 "D
b00000000 r
b0100 U
b0000000 @
b00000000 "c
b11 8
b0000000000011000 #
b00000000 "F
b00 "1
b11 l
b10 "+
#61
1"'
#66
b0010 n
b00001001 f
b0110 "_
b0110 4
b11 "B
b00000000 "%
b1010 S
b10010000 K
b01 "Y
0"'
b00000000 b
b00000000 M
b11 0
b0000 "6
b00 y
b11 "U
b1000101111000000 *
b0100111000000 "8
b10 "#
b00 {
b00 I
b1000001000000000 ,
b01100000 "O
b10 u
b11 "2
b0000000010000010 C
b1100 .
b0000 "f
b00000000 "I
b0000000000000000 "4
b01 o
b0000 Z
b10 "h
b00 =
b01 (
b01 "`
b01 q
b00000000 T
b00000110 "b
b00 "
b11 k
b00 $
b1010 "\
b11 P
b10 g
b10 R
b01 J
b0000 ~
b00000010 i
b00 a
b0000000010011100 "Z
b10101100 "R
b10 N
b00000011 F
b0100000 "i
b10000010 "T
b1100 "?
b0000000000000000 ""
b00000010 H
b11 "V
b11 +
1"9
b1101 |
b11010000 t
b0000000 _
b10 "P
b01 v
b10 "g
b00000000 '
b1101 "5
b0011 x
b00 [
b10 "L
b0010 "D
b10011100 r
b0000 U
b0001100 @
b00000000 "c
b10 8
b0000000000000000 #
b00000010 "F
b10 "1
b10 l
b00000110 ")
b11 :
b1001 "]
b10 "@
b00 "+
#71
1"'
#76
b00000110 f
b0000 "_
b0100 4
b1000 S
b01100000 K
b0100 6
b00000010 "<
0"'
b00000110 b
b01001000 M
b0100 ">
b0100 "6
b10 "!
b10 y
b00000100 2
b10 "U
b0100101111111110 *
b0101110000000 "8
b10 {
b10 I
b10 A
b0100000000000000 ,
b01000000 "O
b00 u
b0010 `
b10 "2
b0000000001000000 C
b1110 .
b1001 "f
b10 "Q
b01000000 "I
b0000000001111110 "4
b10 o
b1001 Z
b10 E
b00 (
b00 "`
b11 "K
b00 q
b01100000 T
b01 ?
b00000100 "b
b01 "
b00 "(
b01 $
b1000 "\
b10 "G
b10 P
b00000100 ;
b0011 "^
b00 g
b00 J
b00000000 "X
b00000010 "C
b01 ";
b00000000 i
b01 "&
b10 a
b0000000001110000 "Z
b10001110 "R
b00000000 "=
b00 N
b00000000 F
b01 1
b0000000 "i
b01000000 "T
b1110 "?
b0000000001111110 ""
b00000000 H
b00 "V
b0011100 "N
0"9
b1000 |
b10001001 t
b0001000 _
b00000011 B
b0000 -
b10 "e
b00 "P
b00 v
b00 Y
b01 "g
b01111110 '
b1000 "5
b0000 x
b10 [
b01 >
b01 )
b00000010 "a
b00 "L
b0000 "D
b01110000 r
b0010 "/
b0110 U
b0010000 @
b00000100 "c
b00 8
b0000000001001000 #
b00000000 "F
b00 l
b00000000 ")
b10 :
b0110 "]
b00 "@
b0000 n
#81
1"'
#86
b0110 n
b00000000 f
b0100 "_
b0110 4
b0010 "W
b00 "B
1}
b00000010 "%
b1110 S
b00000000 K
b0011 6
b00000011 "<
0"'
b00000000 b
b01000110 M
b00 0
b10 "S
b0110 ">
b0011 "6
b11 "!
b01 y
b00000011 2
b1010000001111111 *
b00 {
b11 "#
b0011001110000 "8
1^
b01 I
b11 A
b1001101000000000 ,
b01100000 "O
b10 u
b0011 `
b0000000010011010 C
b0011 .
b0101 "f
b11 "Q
b00110000 "I
b0000000000001111 "4
b00 o
b0101 Z
b11 E
b11 "h
b00 =
b11 (
b11 "`
b00 "K
b11 q
b10 \
b00000000 T
b00000110 "b
b00 "
b00 k
b10 "(
b00 $
b1110 "\
b11 "G
b10 m
b00000110 ;
b0000 "^
b11 ",
b10 g
b11 R
b01 J
b00001001 "X
b00000011 "C
b0010 ~
b00000110 i
b01 a
b0000000000100001 "Z
b11100011 "R
b00001001 "=
b10 N
b0110100 "i
b10011010 "T
b0011 "?
b11 z
b00000010 e
b0000000000001111 ""
b00000110 H
b00 +
b0001100 "N
b1011 |
b10110101 t
b0010100 _
b00000000 B
b1001 -
b11 "e
b01 "P
b11 v
b01 Y
b00000010 D
b00 "g
b00001111 '
b01 "J
b1011 "5
b01 [
b00 >
b00000011 "a
b10 "L
b1001 "D
b0011 "/
b00100001 r
b0000 U
b0011000 @
b00000011 "c
b10 8
b0000000001000110 #
b00001001 "F
b11 "1
b10 l
b00000100 ")
b0000 "]
b10 "+
#91
1"'
#96
b00 "+
b0000 "_
b1001 4
b0000 "W
0}
b00000000 "%
b1100 S
b0000 6
b10 "Y
b00000000 "<
0"'
b00000000 M
b00 "S
b0011 ">
b0000 "6
b01 "!
b00 y
b00000000 2
1"j
b11 "U
b1011010011110000 *
b0000011110000 "8
b00 I
b01 A
b1011010000000000 ,
b10010000 "O
b00 u
b0000 `
b11 "2
b0000000010110100 C
b0001 .
b0000 "f
b01 "Q
b00000000 "I
b0000000000000000 "4
b0000 Z
b00 E
b00 ?
b00001001 "b
b11 "(
b1100 "\
b00 "G
b00 m
b11 P
b00000011 ;
b00 ",
b01 g
b00 J
b00000011 "X
b00000000 "C
b0000 ~
b00000000 i
b00 "&
b00 ";
b00 a
b0000000000001111 "Z
b11000001 "R
b00000011 "=
b00 N
b00 1
b0100100 "i
b10110100 "T
b0001 "?
b00 z
b00000000 e
b0000000000000000 ""
b00000000 H
b0000000 "N
b1111 |
b11110000 t
b0000000 _
b0011 -
b01 "e
b11 Y
b00000000 D
b00000000 '
b00 "J
b1111 "5
b00 [
b00 )
b00000000 "a
b00 "L
b00001111 r
b0000 "/
b0001100 @
b00000000 "c
b00 8
b0000000000000000 #
b00 l
b00000000 ")
b11 :
b0000 n
#101
1"'
#106
b00000010 f
b0010 4
b10 "B
0}
b1000 S
b00100000 K
b0110 6
b00 "Y
b00000011 "<
0"'
b00000100 b
b01001000 M
b10 0
b00 "S
b0011 ">
b0100 "6
b11 "!
b10 y
b00000110 2
0"j
b01 "U
b0011000001010011 *
b0011111110000 "8
b10 "#
0^
b10 I
b11 A
b0010100000000000 ,
0"d
b00100000 "O
b01 "2
b0010 `
b0000000000101000 C
b1011 .
b1001 "f
b11 "Q
b01000000 "I
b0000000001100011 "4
b10 o
b1001 Z
b11 E
b10 "h
b01 (
b01 "`
b10 "K
b01 q
b00 \
b01000000 T
b01 ?
b00000010 "b
b01 "
b10 k
b11 "(
b01 $
b1000 "\
b10 "G
b01 P
b00000011 ;
b0010 "^
b10 ",
b10 g
b10 R
b00000011 "X
b00000010 "C
b01 ";
b01 "&
b10 a
b0000000000110111 "Z
b10001011 "R
b00000011 "=
b00 c
b00000010 F
b00 1
b0001000 "i
b00101000 "T
b1011 "?
b0000000001100011 ""
b10 "V
b10 +
b0100000 "N
b0101 |
b01011001 t
b0001000 _
b00000010 B
b0011 -
b11 "e
b10 "P
b01 v
b11 Y
b00 "g
b01100011 '
b0101 "5
b0010 x
b10 [
b01 >
b01 )
b00000011 "a
b0010 "D
b00110111 r
b0011 "/
b0100 U
b0010100 @
b00000100 "c
b0000000001001000 #
b00000010 "F
b10 "1
b01 :
b0010 "]
#111
1"'
#116
b00000000 f
b0001 4
b00 "B
b0100 S
b00000000 K
b0011 6
b00000110 "<
0"'
b00000000 b
b00011000 M
b00 0
b0001 "6
b01 y
b00000011 2
b0001011010000010 *
b0001001110000 "8
b01 "#
b01 I
b0001010000000000 ,
b00010000 "O
b0010 `
b0000000000010100 C
b0011 .
b0110 "f
b00010000 "I
b0000000000010010 "4
b00 o
b0110 Z
b10 E
b01 "h
b00 "K
b00000000 T
b10 ?
b00000001 "b
b00 "
b01 "E
b00 k
b00 $
b0100 "\
b10 "G
b0000 "^
b11 ",
b01 g
b01 R
b00000010 "C
b10 ";
b10 "&
b01 a
b0000000000001111 "Z
b01000011 "R
b00000000 F
b0000100 "i
b00010100 "T
b0011 "?
b01 z
b0000000000010010 ""
b00 "V
b00 +
b0001100 "N
b01010110 t
b0001000 _
b00000000 B
b01 "P
b00010010 '
b0000 x
b01 [
b00 >
b10 )
b00000110 "a
b0001 "D
b00001111 r
b0110 "/
b0000 U
b0001100 @
b00000001 "c
b0000000000011000 #
b00000001 "F
b01 "1
b0000 "]
#121
1"'
#126
b00000001 f
b0011 4
b1111 S
b00000011 b
b11010010 M
b01 0
b0000 ">
b11 y
b00 "!
b0110100011011000 *
b11 {
b11 "#
b11 I
b0101101000000000 ,
b00110000 "O
b11 u
b0000000001011010 C
b1110 "f
b10010000 "I
b0000000000111000 "4
b01 \
b00000011 "b
b10 "
b00 "E
b00 "(
b10 m
b00000000 ;
b0010 "^
b00 ",
b11 g
b11 R
b00000000 "X
b00000110 "C
b1001 ~
b11 a
1L
b0000000000011000 "Z
b00000000 "=
b10 N
b00000010 F
b0100100 "i
b01011010 "T
b0100 "?
b01 "7
b0000000000111000 ""
b01 +
b0001000 "N
b0110 |
b10 v
b00 Y
b00111000 '
b0010 x
b00011000 r
b0011 U
b0001000 @
b00001001 "c
b0000000011010010 #
b00000110 "F
b11 "1
b11 l
b01 O
b0001 "]
b11 "@
b01 "+
b0011 "_
b0110 "W
b01 "B
b00001001 "%
b00010000 K
b0000 6
b00000000 "<
0"'
b1001 "6
b00000000 2
b0111010100000 "8
b00 A
b0110 `
b0100 .
b00 "Q
b01 o
b1110 Z
b00 E
b11 "h
b10 =
b10 (
b10 "`
b10 "K
b10 q
b00110000 T
b01 k
b1111 "\
b00000110 i
b11110100 "R
b01 z
b00000110 e
b00000110 H
b10 "V
b01101110 t
b0111100 _
b00000010 B
b0000 -
b00 "e
b10 "P
b00000110 D
b01 "J
b0110 "5
1p
b11 [
b00000000 "a
b11 "L
b0110 "D
b0000 "/
b11 8
b00000011 ")
b0110 n
#131
1"'
#136
b00000000 f
b0000 4
b0010 S
b00000011 b
b00001010 M
b11 0
b10 "S
b0000 ">
b01 y
b11 "!
b0000100110111011 *
b11 {
b00 "#
b01 I
b0000011000000000 ,
b00000000 "O
b10 u
b00 "2
b0000000000000110 C
b0101 "f
b00000000 "I
b0000000001001011 "4
b00 \
b00000000 "b
b00 "
b00 "E
b00 "(
b10 m
b00000000 ;
b0011 "^
b11 ",
b00 g
b00 R
15
b00001001 "X
b00000000 "C
b0010 ~
b01 "&
b01 ";
b01 a
0L
b0000000000101101 "Z
b00001001 "=
b10 c
b10 N
b00001001 F
b0000000 "i
b00000110 "T
b1111 "?
b00 "7
b0000000001001011 ""
b11 +
b0011000 "N
b0011 |
b11 v
b01 Y
b01001011 '
b1001 x
b00101101 r
b0011 U
b0100100 @
b00000000 "c
b0000000000001010 #
b00000000 "F
b00 "1
b10 l
b00 O
b00 :
b0000 "]
b00 "@
b10 "+
b00 Q
b0000 "_
b0010 "W
b11 "B
1}
b00000010 "%
b00000000 K
b0011 6
b00000011 "<
0"'
b0000 "6
0d
b00000011 2
b00 "U
b0001101110000 "8
b11 A
b0000 `
b1111 .
b11 "Q
b00 o
b0101 Z
b11 E
b00 "h
b00 =
b11 (
b11 "`
b11 "K
b11 q
b00110000 T
b01 ?
b11 k
b00 $
b0010 "\
b00 "G
b00 P
0"$
b00000110 i
b00101111 "R
b00 z
b00000010 e
b00000110 H
b01 "V
b00110101 t
b0001000 _
b00000011 B
b1001 -
b11 "e
b00 "P
b00000010 D
b0011 "5
0p
b01 [
b00 >
b01 )
b00000011 "a
b10 "L
b0000 "D
b0011 "/
b10 8
b00000000 ")
b0110 n
#141
1"'
#146
b00000110 f
b0100 4
b1011 S
b00000000 b
b00100001 M
b00 "S
b0110 ">
b00 y
1G
b0110000110111101 *
1"M
b00 {
b10 "#
b00 I
b0101100000000000 ,
b01000000 "O
b11 u
b10 "2
b0000000001011000 C
b0011 "f
b00000000 "I
b0000000000101101 "4
b00 \
b00000100 "b
b10 "E
b10 "(
b01 m
b00000110 ;
b1001 "^
b00 ",
b10 R
b01 J
05
b00000000 "X
b00000110 "C
b0000 ~
b11 "&
b11 ";
b00 a
b0000000001111000 "Z
b00000000 "=
b00 c
b00 N
b00000000 F
b01 1
b0011000 "i
b01011000 "T
b10 "7
b0000000000101101 ""
b0100100 "N
b1000 |
b00 v
b00 Y
b00101101 '
b0000 x
b01111000 r
b0000 U
b0011000 @
b00000000 "c
b0000000000100001 #
b00000000 "F
b10 "1
b11 l
b01 O
b10 :
b0110 "]
b10 "@
b00 "+
b10 Q
b0110 "_
b1001 "W
0}
b00000000 "%
b01100000 K
b0000 6
b01 "Y
b00001001 "<
0"'
b0000 "6
b00000000 2
b10 "U
b0100110010000 "8
b0110 `
b10 o
b0011 Z
b01 E
b10 "h
b00 (
b00 "`
b01 "K
b00 q
b00000000 T
b11 ?
b1011 "\
b10 "G
b10 P
13
b00000000 i
b10111111 "R
b00 z
b00001001 e
b00000000 H
b00 "V
b10000011 t
b0011000 _
b00001001 B
b0000 -
b00 "P
b00001001 D
b01 "g
b00 "J
b1000 "5
b00 [
b11 )
b00001001 "a
b11 "L
b0000 "D
b1001 "/
b11 8
b00000110 ")
0"H
b0000 n
#151
1"'
