test_run_dir/Karatsuba_should_pass/Karatsuba2x2.vcd
$date
2023-11-29T12:39+0000
$end
$version
0.2
$end
$comment

$end
$timescale 1ns  $end
$scope module Karatsuba2x2 $end
 $var wire 2 ! io_out_lo $end
 $var wire 4 " io_out $end
 $var wire 2 # io_b $end
 $var wire 2 $ io_out_hi $end
 $var wire 1 % temp $end
 $var wire 1 & clock $end
 $var wire 2 ' io_a $end
 $var wire 1 ( reset $end
$upscope $end
$enddefinitions $end
$dumpvars
0%
b00 #
0&
b00 '
b00 $
b00 !
b0000 "
0(
$end
#0
1(
#1
1&
#6
0&
b11 '
0(
#11
1&
#16
b11 !
b0011 "
0&
b11 #
b01 '
#21
1&
#26
b00 !
b0000 "
0&
b00 #
b10 '
b00 $
#31
1&
#36
b10 !
b0010 "
0&
b10 #
b01 '
#41
1&
#46
b00 !
b0000 "
0&
b00 #
b10 '
b00 $
#51
1&
#56
0&
b00 '
#61
1&
#66
0&
b01 #
#71
1&
#76
b00 !
b0000 "
0&
b00 #
b11 '
#81
1&
#86
b01 !
b0001 "
0&
b01 #
b01 '
#91
1&
#96
b00 !
b0000 "
0&
b00 #
b10 '
#101
1&
#106
0&
b00 '
#111
1&
#116
0&
b01 #
#121
1&
#126
0&
b11 #
#131
1&
#136
0&
b10 #
#141
1&
#146
b0100 "
0&
b10 '
b01 $
#151
1&
#156
b00 !
b0000 "
0&
b00 #
b01 '
b00 $
#161
1&
#166
b0100 "
0&
b10 #
b10 '
b01 $
#171
1&
#176
b0000 "
0&
b00 #
b00 $
#181
1&
#186
0&
b01 '
#191
1&
#196
b11 !
b0011 "
0&
b01 #
b11 '
#201
1&
#206
b00 !
b0000 "
0&
b00 '
#211
1&
#216
b00 !
b0100 "
0&
b10 #
b10 '
b01 $
#221
1&
#226
b0000 "
0&
b01 #
b00 '
b00 $
#231
1&
#236
b11 !
b0011 "
0&
b11 #
b01 '
#241
1&
#246
b11 !
0%
b0011 "
0&
b01 #
b11 '
b00 $
#251
1&
#256
b00 !
b0000 "
0&
b00 #
b00 '
#261
1&
#266
b10 !
b0010 "
0&
b10 #
b01 '
#271
1&
#276
b01 !
1%
b1001 "
0&
b11 #
b11 '
b10 $
#281
1&
#286
b11 !
0%
b0011 "
0&
b01 #
b00 $
#291
1&
#296
b10 !
b0010 "
0&
b10 '
#301
1&
#306
0&
#311
1&
#316
b00 !
b0000 "
0&
b00 #
#321
1&
#326
b11 !
b0011 "
0&
b01 #
b11 '
#331
1&
#336
b00 !
b0100 "
0&
b10 #
b10 '
b01 $
#341
1&
#346
0&
#351
1&
#356
b01 !
b0001 "
0&
b01 #
b01 '
b00 $
#361
1&
#366
b00 !
b0000 "
0&
b00 #
b10 '
#371
1&
#376
b0100 "
0&
b10 #
b01 $
#381
1&
#386
b00 !
b0000 "
0&
b00 #
b01 '
b00 $
#391
1&
#396
0&
#401
1&
#406
b0100 "
0&
b10 #
b10 '
b01 $
#411
1&
#416
b0000 "
0&
b00 '
b00 $
#421
1&
#426
b01 !
1%
b1001 "
0&
b11 #
b11 '
b10 $
#431
1&
#436
b00 !
0%
b0000 "
0&
b01 #
b00 '
b00 $
#441
1&
#446
0&
#451
1&
#456
b01 !
1%
b1001 "
0&
b11 #
b11 '
b10 $
#461
1&
#466
b01 !
0%
b0001 "
0&
b01 #
b01 '
b00 $
#471
1&
#476
b11 !
b0011 "
0&
b11 #
#481
1&
#486
b10 !
0%
b0110 "
0&
b10 #
b11 '
b01 $
#491
1&
#496
b01 !
b0001 "
0&
b01 #
b01 '
b00 $
#501
1&
#506
b00 !
b0100 "
0&
b10 #
b10 '
b01 $
#511
1&
#516
b0000 "
0&
b00 '
b00 $
#521
1&
#526
b11 !
b0011 "
0&
b11 #
b01 '
#531
1&
#536
b10 !
b0110 "
0&
b10 '
b01 $
#541
1&
#546
b11 !
b0011 "
0&
b01 '
b00 $
#551
1&
#556
b01 !
b0001 "
0&
b01 #
#561
1&
#566
b00 !
b0000 "
0&
b00 #
b11 '
#571
1&
#576
b10 !
b0010 "
0&
b10 #
b01 '
#581
1&
#586
b00 !
b0100 "
0&
b10 '
b01 $
#591
1&
#596
b10 !
b0010 "
0&
b01 #
b00 $
#601
1&
#606
b10 !
b0110 "
0&
b10 #
b11 '
b01 $
#611
1&
#616
b00 !
b0000 "
0&
b11 #
b00 '
b00 $
#621
1&
#626
b10 !
b0110 "
0&
b10 '
b01 $
#631
1&
#636
b10 !
b0010 "
0&
b10 #
b01 '
b00 $
#641
1&
#646
b01 !
1%
b1001 "
0&
b11 #
b11 '
b10 $
#651
1&
#656
b00 !
0%
b0000 "
0&
b00 #
b01 '
b00 $
#661
1&
#666
b0100 "
0&
b10 #
b10 '
b01 $
#671
1&
#676
b01 !
b0001 "
0&
b01 #
b01 '
b00 $
#681
1&
#686
b11 !
b0011 "
0&
b11 #
#691
1&
#696
b00 !
0%
b0000 "
0&
b00 #
b11 '
b00 $
#701
1&
#706
0&
b10 #
b00 '
#711
1&
#716
b11 !
b0011 "
0&
b11 #
b01 '
#721
1&
#726
b10 !
b0110 "
0&
b10 '
b01 $
#731
1&
#736
b0010 "
0&
b01 #
b00 $
#741
1&
#746
b01 !
b0001 "
0&
b01 '
#751
1&
#756
b00 !
b0000 "
0&
b00 #
b11 '
#761
1&
#766
b01 !
1%
b1001 "
0&
b11 #
b10 $
#771
1&
#776
b10 !
0%
b0110 "
0&
b10 #
b01 $
#781
1&
#786
b01 !
b0001 "
0&
b01 #
b01 '
b00 $
#791
1&
#796
b00 !
b0100 "
0&
b10 #
b10 '
b01 $
#801
1&
#806
b00 !
b0000 "
0&
b00 #
b01 '
b00 $
#811
1&
#816
b0100 "
0&
b10 #
b10 '
b01 $
#821
1&
#826
b10 !
b0110 "
0&
b11 '
#831
1&
#836
b00 !
b0000 "
0&
b00 #
b10 '
b00 $
#841
1&
#846
0&
b11 '
#851
1&
#856
0&
b01 '
#861
1&
#866
b01 !
1%
b1001 "
0&
b11 #
b11 '
b10 $
#871
1&
#876
b00 !
0%
b0100 "
0&
b10 #
b10 '
b01 $
#881
1&
#886
b0000 "
0&
b01 #
b00 '
b00 $
#891
1&
#896
b00 !
b0000 "
0&
b00 #
b01 '
#901
1&
#906
b0100 "
0&
b10 #
b10 '
b01 $
#911
1&
#916
b01 !
1%
b1001 "
0&
b11 #
b11 '
b10 $
#921
1&
#926
b00 !
0%
b0000 "
0&
b00 #
b00 $
#931
1&
#936
0&
b10 #
b00 '
#941
1&
#946
b10 !
b0110 "
0&
b11 #
b10 '
b01 $
#951
1&
#956
b00 !
b0000 "
0&
b01 #
b00 '
b00 $
#961
1&
#966
0&
b11 #
#971
1&
#976
b10 !
b0010 "
0&
b01 #
b10 '
b00 $
#981
1&
#986
b00 !
b0000 "
0&
b00 #
b11 '
#991
1&
#996
b10 !
b0110 "
0&
b11 #
b10 '
b01 $
#1001
1&
#1006
0&
b00 #
b00 '
